L,R,C,x,y
1,197,201,1911510,5604950
1,192,201,1911510,5605450
1,212,206,1912010,5603450
1,202,206,1912010,5604450
1,197,206,1912010,5604950
1,192,206,1912010,5605450
1,187,206,1912010,5605950
1,212,211,1912510,5603450
1,202,211,1912510,5604450
1,197,211,1912510,5604950
1,192,211,1912510,5605450
1,187,211,1912510,5605950
1,182,211,1912510,5606450
1,212,216,1913010,5603450
1,207,216,1913010,5603950
1,202,216,1913010,5604450
1,197,216,1913010,5604950
1,192,216,1913010,5605450
1,187,216,1913010,5605950
1,182,216,1913010,5606450
1,212,221,1913510,5603450
1,207,221,1913510,5603950
1,202,221,1913510,5604450
1,197,221,1913510,5604950
1,192,221,1913510,5605450
1,187,221,1913510,5605950
1,182,221,1913510,5606450
1,232,226,1914010,5601450
1,212,226,1914010,5603450
1,207,226,1914010,5603950
1,202,226,1914010,5604450
1,197,226,1914010,5604950
1,192,226,1914010,5605450
1,187,226,1914010,5605950
1,182,226,1914010,5606450
1,227,231,1914510,5601950
1,207,231,1914510,5603950
1,202,231,1914510,5604450
1,197,231,1914510,5604950
1,192,231,1914510,5605450
1,187,231,1914510,5605950
1,182,231,1914510,5606450
1,237,236,1915010,5600950
1,232,236,1915010,5601450
1,227,236,1915010,5601950
1,222,236,1915010,5602450
1,202,236,1915010,5604450
1,197,236,1915010,5604950
1,192,236,1915010,5605450
1,187,236,1915010,5605950
1,182,236,1915010,5606450
1,177,236,1915010,5606950
1,162,236,1915010,5608450
1,232,241,1915510,5601450
1,227,241,1915510,5601950
1,222,241,1915510,5602450
1,217,241,1915510,5602950
1,212,241,1915510,5603450
1,202,241,1915510,5604450
1,197,241,1915510,5604950
1,192,241,1915510,5605450
1,187,241,1915510,5605950
1,182,241,1915510,5606450
1,177,241,1915510,5606950
1,172,241,1915510,5607450
1,167,241,1915510,5607950
1,232,246,1916010,5601450
1,227,246,1916010,5601950
1,222,246,1916010,5602450
1,217,246,1916010,5602950
1,212,246,1916010,5603450
1,207,246,1916010,5603950
1,202,246,1916010,5604450
1,197,246,1916010,5604950
1,192,246,1916010,5605450
1,187,246,1916010,5605950
1,182,246,1916010,5606450
1,177,246,1916010,5606950
1,172,246,1916010,5607450
1,167,246,1916010,5607950
1,162,246,1916010,5608450
1,157,246,1916010,5608950
1,152,246,1916010,5609450
1,227,251,1916510,5601950
1,222,251,1916510,5602450
1,217,251,1916510,5602950
1,212,251,1916510,5603450
1,207,251,1916510,5603950
1,202,251,1916510,5604450
1,197,251,1916510,5604950
1,192,251,1916510,5605450
1,187,251,1916510,5605950
1,182,251,1916510,5606450
1,177,251,1916510,5606950
1,172,251,1916510,5607450
1,167,251,1916510,5607950
1,162,251,1916510,5608450
1,157,251,1916510,5608950
1,152,251,1916510,5609450
1,262,256,1917010,5598450
1,257,256,1917010,5598950
1,222,256,1917010,5602450
1,217,256,1917010,5602950
1,212,256,1917010,5603450
1,207,256,1917010,5603950
1,202,256,1917010,5604450
1,197,256,1917010,5604950
1,192,256,1917010,5605450
1,187,256,1917010,5605950
1,167,256,1917010,5607950
1,162,256,1917010,5608450
1,157,256,1917010,5608950
1,152,256,1917010,5609450
1,257,261,1917510,5598950
1,252,261,1917510,5599450
1,222,261,1917510,5602450
1,217,261,1917510,5602950
1,212,261,1917510,5603450
1,207,261,1917510,5603950
1,202,261,1917510,5604450
1,197,261,1917510,5604950
1,192,261,1917510,5605450
1,187,261,1917510,5605950
1,182,261,1917510,5606450
1,162,261,1917510,5608450
1,157,261,1917510,5608950
1,152,261,1917510,5609450
1,257,266,1918010,5598950
1,252,266,1918010,5599450
1,212,266,1918010,5603450
1,207,266,1918010,5603950
1,202,266,1918010,5604450
1,197,266,1918010,5604950
1,192,266,1918010,5605450
1,187,266,1918010,5605950
1,182,266,1918010,5606450
1,162,266,1918010,5608450
1,157,266,1918010,5608950
1,152,266,1918010,5609450
1,147,266,1918010,5609950
1,257,271,1918510,5598950
1,252,271,1918510,5599450
1,237,271,1918510,5600950
1,212,271,1918510,5603450
1,207,271,1918510,5603950
1,202,271,1918510,5604450
1,197,271,1918510,5604950
1,192,271,1918510,5605450
1,187,271,1918510,5605950
1,182,271,1918510,5606450
1,177,271,1918510,5606950
1,157,271,1918510,5608950
1,152,271,1918510,5609450
1,147,271,1918510,5609950
1,142,271,1918510,5610450
1,27,271,1918510,5621950
1,22,271,1918510,5622450
1,262,276,1919010,5598450
1,257,276,1919010,5598950
1,252,276,1919010,5599450
1,247,276,1919010,5599950
1,242,276,1919010,5600450
1,237,276,1919010,5600950
1,207,276,1919010,5603950
1,202,276,1919010,5604450
1,197,276,1919010,5604950
1,192,276,1919010,5605450
1,187,276,1919010,5605950
1,182,276,1919010,5606450
1,177,276,1919010,5606950
1,172,276,1919010,5607450
1,157,276,1919010,5608950
1,152,276,1919010,5609450
1,147,276,1919010,5609950
1,142,276,1919010,5610450
1,32,276,1919010,5621450
1,27,276,1919010,5621950
1,22,276,1919010,5622450
1,17,276,1919010,5622950
1,257,281,1919510,5598950
1,252,281,1919510,5599450
1,247,281,1919510,5599950
1,242,281,1919510,5600450
1,237,281,1919510,5600950
1,232,281,1919510,5601450
1,207,281,1919510,5603950
1,202,281,1919510,5604450
1,197,281,1919510,5604950
1,192,281,1919510,5605450
1,187,281,1919510,5605950
1,182,281,1919510,5606450
1,177,281,1919510,5606950
1,172,281,1919510,5607450
1,157,281,1919510,5608950
1,152,281,1919510,5609450
1,147,281,1919510,5609950
1,142,281,1919510,5610450
1,137,281,1919510,5610950
1,37,281,1919510,5620950
1,32,281,1919510,5621450
1,27,281,1919510,5621950
1,22,281,1919510,5622450
1,237,286,1920010,5600950
1,232,286,1920010,5601450
1,227,286,1920010,5601950
1,202,286,1920010,5604450
1,197,286,1920010,5604950
1,192,286,1920010,5605450
1,187,286,1920010,5605950
1,182,286,1920010,5606450
1,177,286,1920010,5606950
1,172,286,1920010,5607450
1,157,286,1920010,5608950
1,152,286,1920010,5609450
1,147,286,1920010,5609950
1,142,286,1920010,5610450
1,137,286,1920010,5610950
1,37,286,1920010,5620950
1,32,286,1920010,5621450
1,27,286,1920010,5621950
1,237,291,1920510,5600950
1,232,291,1920510,5601450
1,227,291,1920510,5601950
1,202,291,1920510,5604450
1,197,291,1920510,5604950
1,192,291,1920510,5605450
1,187,291,1920510,5605950
1,182,291,1920510,5606450
1,177,291,1920510,5606950
1,172,291,1920510,5607450
1,167,291,1920510,5607950
1,157,291,1920510,5608950
1,152,291,1920510,5609450
1,147,291,1920510,5609950
1,142,291,1920510,5610450
1,137,291,1920510,5610950
1,132,291,1920510,5611450
1,127,291,1920510,5611950
1,122,291,1920510,5612450
1,42,291,1920510,5620450
1,37,291,1920510,5620950
1,237,296,1921010,5600950
1,232,296,1921010,5601450
1,227,296,1921010,5601950
1,217,296,1921010,5602950
1,212,296,1921010,5603450
1,207,296,1921010,5603950
1,202,296,1921010,5604450
1,197,296,1921010,5604950
1,192,296,1921010,5605450
1,187,296,1921010,5605950
1,182,296,1921010,5606450
1,177,296,1921010,5606950
1,172,296,1921010,5607450
1,167,296,1921010,5607950
1,162,296,1921010,5608450
1,157,296,1921010,5608950
1,152,296,1921010,5609450
1,147,296,1921010,5609950
1,142,296,1921010,5610450
1,137,296,1921010,5610950
1,132,296,1921010,5611450
1,127,296,1921010,5611950
1,42,296,1921010,5620450
1,37,296,1921010,5620950
1,242,301,1921510,5600450
1,237,301,1921510,5600950
1,232,301,1921510,5601450
1,227,301,1921510,5601950
1,222,301,1921510,5602450
1,217,301,1921510,5602950
1,212,301,1921510,5603450
1,207,301,1921510,5603950
1,202,301,1921510,5604450
1,197,301,1921510,5604950
1,192,301,1921510,5605450
1,187,301,1921510,5605950
1,182,301,1921510,5606450
1,177,301,1921510,5606950
1,172,301,1921510,5607450
1,167,301,1921510,5607950
1,162,301,1921510,5608450
1,157,301,1921510,5608950
1,152,301,1921510,5609450
1,147,301,1921510,5609950
1,142,301,1921510,5610450
1,137,301,1921510,5610950
1,132,301,1921510,5611450
1,127,301,1921510,5611950
1,42,301,1921510,5620450
1,37,301,1921510,5620950
1,32,301,1921510,5621450
1,262,306,1922010,5598450
1,247,306,1922010,5599950
1,242,306,1922010,5600450
1,237,306,1922010,5600950
1,232,306,1922010,5601450
1,227,306,1922010,5601950
1,222,306,1922010,5602450
1,217,306,1922010,5602950
1,212,306,1922010,5603450
1,207,306,1922010,5603950
1,202,306,1922010,5604450
1,197,306,1922010,5604950
1,192,306,1922010,5605450
1,187,306,1922010,5605950
1,182,306,1922010,5606450
1,177,306,1922010,5606950
1,172,306,1922010,5607450
1,167,306,1922010,5607950
1,162,306,1922010,5608450
1,157,306,1922010,5608950
1,152,306,1922010,5609450
1,147,306,1922010,5609950
1,142,306,1922010,5610450
1,137,306,1922010,5610950
1,132,306,1922010,5611450
1,127,306,1922010,5611950
1,42,306,1922010,5620450
1,37,306,1922010,5620950
1,32,306,1922010,5621450
1,272,311,1922510,5597450
1,267,311,1922510,5597950
1,262,311,1922510,5598450
1,257,311,1922510,5598950
1,252,311,1922510,5599450
1,247,311,1922510,5599950
1,242,311,1922510,5600450
1,237,311,1922510,5600950
1,232,311,1922510,5601450
1,227,311,1922510,5601950
1,222,311,1922510,5602450
1,217,311,1922510,5602950
1,212,311,1922510,5603450
1,207,311,1922510,5603950
1,202,311,1922510,5604450
1,197,311,1922510,5604950
1,192,311,1922510,5605450
1,187,311,1922510,5605950
1,182,311,1922510,5606450
1,177,311,1922510,5606950
1,172,311,1922510,5607450
1,167,311,1922510,5607950
1,162,311,1922510,5608450
1,157,311,1922510,5608950
1,152,311,1922510,5609450
1,147,311,1922510,5609950
1,142,311,1922510,5610450
1,137,311,1922510,5610950
1,132,311,1922510,5611450
1,127,311,1922510,5611950
1,122,311,1922510,5612450
1,92,311,1922510,5615450
1,87,311,1922510,5615950
1,82,311,1922510,5616450
1,77,311,1922510,5616950
1,42,311,1922510,5620450
1,37,311,1922510,5620950
1,267,316,1923010,5597950
1,262,316,1923010,5598450
1,257,316,1923010,5598950
1,252,316,1923010,5599450
1,247,316,1923010,5599950
1,242,316,1923010,5600450
1,237,316,1923010,5600950
1,232,316,1923010,5601450
1,227,316,1923010,5601950
1,222,316,1923010,5602450
1,217,316,1923010,5602950
1,212,316,1923010,5603450
1,207,316,1923010,5603950
1,202,316,1923010,5604450
1,197,316,1923010,5604950
1,192,316,1923010,5605450
1,187,316,1923010,5605950
1,182,316,1923010,5606450
1,177,316,1923010,5606950
1,172,316,1923010,5607450
1,167,316,1923010,5607950
1,162,316,1923010,5608450
1,157,316,1923010,5608950
1,152,316,1923010,5609450
1,147,316,1923010,5609950
1,137,316,1923010,5610950
1,132,316,1923010,5611450
1,127,316,1923010,5611950
1,122,316,1923010,5612450
1,112,316,1923010,5613450
1,107,316,1923010,5613950
1,102,316,1923010,5614450
1,97,316,1923010,5614950
1,92,316,1923010,5615450
1,87,316,1923010,5615950
1,82,316,1923010,5616450
1,77,316,1923010,5616950
1,72,316,1923010,5617450
1,67,316,1923010,5617950
1,62,316,1923010,5618450
1,57,316,1923010,5618950
1,52,316,1923010,5619450
1,47,316,1923010,5619950
1,42,316,1923010,5620450
1,37,316,1923010,5620950
1,32,316,1923010,5621450
1,262,321,1923510,5598450
1,257,321,1923510,5598950
1,252,321,1923510,5599450
1,247,321,1923510,5599950
1,242,321,1923510,5600450
1,237,321,1923510,5600950
1,232,321,1923510,5601450
1,227,321,1923510,5601950
1,222,321,1923510,5602450
1,217,321,1923510,5602950
1,212,321,1923510,5603450
1,207,321,1923510,5603950
1,202,321,1923510,5604450
1,197,321,1923510,5604950
1,192,321,1923510,5605450
1,187,321,1923510,5605950
1,182,321,1923510,5606450
1,177,321,1923510,5606950
1,172,321,1923510,5607450
1,167,321,1923510,5607950
1,162,321,1923510,5608450
1,157,321,1923510,5608950
1,152,321,1923510,5609450
1,147,321,1923510,5609950
1,142,321,1923510,5610450
1,137,321,1923510,5610950
1,132,321,1923510,5611450
1,127,321,1923510,5611950
1,122,321,1923510,5612450
1,117,321,1923510,5612950
1,112,321,1923510,5613450
1,107,321,1923510,5613950
1,102,321,1923510,5614450
1,97,321,1923510,5614950
1,92,321,1923510,5615450
1,87,321,1923510,5615950
1,82,321,1923510,5616450
1,77,321,1923510,5616950
1,72,321,1923510,5617450
1,67,321,1923510,5617950
1,62,321,1923510,5618450
1,57,321,1923510,5618950
1,52,321,1923510,5619450
1,47,321,1923510,5619950
1,42,321,1923510,5620450
1,37,321,1923510,5620950
1,32,321,1923510,5621450
1,257,326,1924010,5598950
1,252,326,1924010,5599450
1,247,326,1924010,5599950
1,242,326,1924010,5600450
1,237,326,1924010,5600950
1,232,326,1924010,5601450
1,227,326,1924010,5601950
1,222,326,1924010,5602450
1,217,326,1924010,5602950
1,212,326,1924010,5603450
1,207,326,1924010,5603950
1,202,326,1924010,5604450
1,197,326,1924010,5604950
1,192,326,1924010,5605450
1,187,326,1924010,5605950
1,182,326,1924010,5606450
1,177,326,1924010,5606950
1,172,326,1924010,5607450
1,167,326,1924010,5607950
1,162,326,1924010,5608450
1,157,326,1924010,5608950
1,152,326,1924010,5609450
1,147,326,1924010,5609950
1,142,326,1924010,5610450
1,137,326,1924010,5610950
1,132,326,1924010,5611450
1,127,326,1924010,5611950
1,122,326,1924010,5612450
1,117,326,1924010,5612950
1,112,326,1924010,5613450
1,107,326,1924010,5613950
1,92,326,1924010,5615450
1,87,326,1924010,5615950
1,82,326,1924010,5616450
1,77,326,1924010,5616950
1,72,326,1924010,5617450
1,67,326,1924010,5617950
1,62,326,1924010,5618450
1,57,326,1924010,5618950
1,52,326,1924010,5619450
1,47,326,1924010,5619950
1,42,326,1924010,5620450
1,37,326,1924010,5620950
1,32,326,1924010,5621450
1,257,331,1924510,5598950
1,252,331,1924510,5599450
1,247,331,1924510,5599950
1,242,331,1924510,5600450
1,237,331,1924510,5600950
1,232,331,1924510,5601450
1,227,331,1924510,5601950
1,222,331,1924510,5602450
1,217,331,1924510,5602950
1,212,331,1924510,5603450
1,207,331,1924510,5603950
1,202,331,1924510,5604450
1,197,331,1924510,5604950
1,192,331,1924510,5605450
1,187,331,1924510,5605950
1,182,331,1924510,5606450
1,177,331,1924510,5606950
1,172,331,1924510,5607450
1,167,331,1924510,5607950
1,162,331,1924510,5608450
1,157,331,1924510,5608950
1,152,331,1924510,5609450
1,147,331,1924510,5609950
1,142,331,1924510,5610450
1,137,331,1924510,5610950
1,132,331,1924510,5611450
1,127,331,1924510,5611950
1,122,331,1924510,5612450
1,117,331,1924510,5612950
1,112,331,1924510,5613450
1,107,331,1924510,5613950
1,87,331,1924510,5615950
1,82,331,1924510,5616450
1,77,331,1924510,5616950
1,72,331,1924510,5617450
1,67,331,1924510,5617950
1,62,331,1924510,5618450
1,57,331,1924510,5618950
1,52,331,1924510,5619450
1,47,331,1924510,5619950
1,42,331,1924510,5620450
1,37,331,1924510,5620950
1,252,336,1925010,5599450
1,247,336,1925010,5599950
1,242,336,1925010,5600450
1,237,336,1925010,5600950
1,232,336,1925010,5601450
1,227,336,1925010,5601950
1,222,336,1925010,5602450
1,217,336,1925010,5602950
1,212,336,1925010,5603450
1,207,336,1925010,5603950
1,202,336,1925010,5604450
1,197,336,1925010,5604950
1,192,336,1925010,5605450
1,187,336,1925010,5605950
1,182,336,1925010,5606450
1,177,336,1925010,5606950
1,172,336,1925010,5607450
1,167,336,1925010,5607950
1,162,336,1925010,5608450
1,157,336,1925010,5608950
1,152,336,1925010,5609450
1,147,336,1925010,5609950
1,142,336,1925010,5610450
1,137,336,1925010,5610950
1,132,336,1925010,5611450
1,127,336,1925010,5611950
1,122,336,1925010,5612450
1,117,336,1925010,5612950
1,72,336,1925010,5617450
1,67,336,1925010,5617950
1,62,336,1925010,5618450
1,57,336,1925010,5618950
1,52,336,1925010,5619450
1,47,336,1925010,5619950
1,42,336,1925010,5620450
1,302,341,1925510,5594450
1,262,341,1925510,5598450
1,257,341,1925510,5598950
1,252,341,1925510,5599450
1,247,341,1925510,5599950
1,242,341,1925510,5600450
1,237,341,1925510,5600950
1,232,341,1925510,5601450
1,227,341,1925510,5601950
1,222,341,1925510,5602450
1,217,341,1925510,5602950
1,212,341,1925510,5603450
1,207,341,1925510,5603950
1,202,341,1925510,5604450
1,197,341,1925510,5604950
1,192,341,1925510,5605450
1,187,341,1925510,5605950
1,182,341,1925510,5606450
1,177,341,1925510,5606950
1,172,341,1925510,5607450
1,167,341,1925510,5607950
1,162,341,1925510,5608450
1,157,341,1925510,5608950
1,152,341,1925510,5609450
1,147,341,1925510,5609950
1,142,341,1925510,5610450
1,137,341,1925510,5610950
1,132,341,1925510,5611450
1,127,341,1925510,5611950
1,122,341,1925510,5612450
1,117,341,1925510,5612950
1,112,341,1925510,5613450
1,57,341,1925510,5618950
1,52,341,1925510,5619450
1,297,346,1926010,5594950
1,292,346,1926010,5595450
1,287,346,1926010,5595950
1,282,346,1926010,5596450
1,277,346,1926010,5596950
1,272,346,1926010,5597450
1,267,346,1926010,5597950
1,262,346,1926010,5598450
1,257,346,1926010,5598950
1,252,346,1926010,5599450
1,247,346,1926010,5599950
1,242,346,1926010,5600450
1,237,346,1926010,5600950
1,232,346,1926010,5601450
1,227,346,1926010,5601950
1,222,346,1926010,5602450
1,217,346,1926010,5602950
1,212,346,1926010,5603450
1,207,346,1926010,5603950
1,202,346,1926010,5604450
1,197,346,1926010,5604950
1,192,346,1926010,5605450
1,187,346,1926010,5605950
1,182,346,1926010,5606450
1,177,346,1926010,5606950
1,172,346,1926010,5607450
1,167,346,1926010,5607950
1,162,346,1926010,5608450
1,157,346,1926010,5608950
1,152,346,1926010,5609450
1,147,346,1926010,5609950
1,142,346,1926010,5610450
1,137,346,1926010,5610950
1,132,346,1926010,5611450
1,127,346,1926010,5611950
1,122,346,1926010,5612450
1,117,346,1926010,5612950
1,112,346,1926010,5613450
1,287,351,1926510,5595950
1,282,351,1926510,5596450
1,277,351,1926510,5596950
1,272,351,1926510,5597450
1,267,351,1926510,5597950
1,262,351,1926510,5598450
1,257,351,1926510,5598950
1,252,351,1926510,5599450
1,247,351,1926510,5599950
1,242,351,1926510,5600450
1,237,351,1926510,5600950
1,232,351,1926510,5601450
1,227,351,1926510,5601950
1,222,351,1926510,5602450
1,217,351,1926510,5602950
1,212,351,1926510,5603450
1,207,351,1926510,5603950
1,202,351,1926510,5604450
1,197,351,1926510,5604950
1,192,351,1926510,5605450
1,187,351,1926510,5605950
1,182,351,1926510,5606450
1,177,351,1926510,5606950
1,172,351,1926510,5607450
1,167,351,1926510,5607950
1,162,351,1926510,5608450
1,157,351,1926510,5608950
1,152,351,1926510,5609450
1,147,351,1926510,5609950
1,142,351,1926510,5610450
1,137,351,1926510,5610950
1,132,351,1926510,5611450
1,127,351,1926510,5611950
1,122,351,1926510,5612450
1,117,351,1926510,5612950
1,112,351,1926510,5613450
1,102,351,1926510,5614450
1,282,356,1927010,5596450
1,277,356,1927010,5596950
1,272,356,1927010,5597450
1,267,356,1927010,5597950
1,262,356,1927010,5598450
1,257,356,1927010,5598950
1,252,356,1927010,5599450
1,247,356,1927010,5599950
1,242,356,1927010,5600450
1,237,356,1927010,5600950
1,232,356,1927010,5601450
1,227,356,1927010,5601950
1,222,356,1927010,5602450
1,217,356,1927010,5602950
1,212,356,1927010,5603450
1,207,356,1927010,5603950
1,202,356,1927010,5604450
1,197,356,1927010,5604950
1,192,356,1927010,5605450
1,187,356,1927010,5605950
1,182,356,1927010,5606450
1,177,356,1927010,5606950
1,172,356,1927010,5607450
1,167,356,1927010,5607950
1,162,356,1927010,5608450
1,157,356,1927010,5608950
1,152,356,1927010,5609450
1,147,356,1927010,5609950
1,142,356,1927010,5610450
1,137,356,1927010,5610950
1,132,356,1927010,5611450
1,127,356,1927010,5611950
1,122,356,1927010,5612450
1,117,356,1927010,5612950
1,112,356,1927010,5613450
1,102,356,1927010,5614450
1,97,356,1927010,5614950
1,92,356,1927010,5615450
1,277,361,1927510,5596950
1,272,361,1927510,5597450
1,267,361,1927510,5597950
1,262,361,1927510,5598450
1,257,361,1927510,5598950
1,252,361,1927510,5599450
1,247,361,1927510,5599950
1,242,361,1927510,5600450
1,237,361,1927510,5600950
1,232,361,1927510,5601450
1,227,361,1927510,5601950
1,222,361,1927510,5602450
1,217,361,1927510,5602950
1,212,361,1927510,5603450
1,207,361,1927510,5603950
1,202,361,1927510,5604450
1,197,361,1927510,5604950
1,192,361,1927510,5605450
1,187,361,1927510,5605950
1,182,361,1927510,5606450
1,177,361,1927510,5606950
1,172,361,1927510,5607450
1,167,361,1927510,5607950
1,162,361,1927510,5608450
1,157,361,1927510,5608950
1,152,361,1927510,5609450
1,147,361,1927510,5609950
1,142,361,1927510,5610450
1,137,361,1927510,5610950
1,132,361,1927510,5611450
1,127,361,1927510,5611950
1,122,361,1927510,5612450
1,117,361,1927510,5612950
1,112,361,1927510,5613450
1,102,361,1927510,5614450
1,97,361,1927510,5614950
1,92,361,1927510,5615450
1,272,366,1928010,5597450
1,267,366,1928010,5597950
1,262,366,1928010,5598450
1,257,366,1928010,5598950
1,252,366,1928010,5599450
1,247,366,1928010,5599950
1,242,366,1928010,5600450
1,237,366,1928010,5600950
1,232,366,1928010,5601450
1,227,366,1928010,5601950
1,222,366,1928010,5602450
1,217,366,1928010,5602950
1,212,366,1928010,5603450
1,207,366,1928010,5603950
1,202,366,1928010,5604450
1,197,366,1928010,5604950
1,192,366,1928010,5605450
1,187,366,1928010,5605950
1,182,366,1928010,5606450
1,177,366,1928010,5606950
1,172,366,1928010,5607450
1,167,366,1928010,5607950
1,162,366,1928010,5608450
1,157,366,1928010,5608950
1,152,366,1928010,5609450
1,147,366,1928010,5609950
1,142,366,1928010,5610450
1,137,366,1928010,5610950
1,132,366,1928010,5611450
1,127,366,1928010,5611950
1,122,366,1928010,5612450
1,117,366,1928010,5612950
1,112,366,1928010,5613450
1,102,366,1928010,5614450
1,97,366,1928010,5614950
1,267,371,1928510,5597950
1,262,371,1928510,5598450
1,257,371,1928510,5598950
1,252,371,1928510,5599450
1,247,371,1928510,5599950
1,242,371,1928510,5600450
1,237,371,1928510,5600950
1,232,371,1928510,5601450
1,227,371,1928510,5601950
1,222,371,1928510,5602450
1,217,371,1928510,5602950
1,212,371,1928510,5603450
1,207,371,1928510,5603950
1,202,371,1928510,5604450
1,197,371,1928510,5604950
1,192,371,1928510,5605450
1,187,371,1928510,5605950
1,182,371,1928510,5606450
1,177,371,1928510,5606950
1,172,371,1928510,5607450
1,167,371,1928510,5607950
1,162,371,1928510,5608450
1,157,371,1928510,5608950
1,152,371,1928510,5609450
1,147,371,1928510,5609950
1,142,371,1928510,5610450
1,137,371,1928510,5610950
1,132,371,1928510,5611450
1,127,371,1928510,5611950
1,122,371,1928510,5612450
1,117,371,1928510,5612950
1,112,371,1928510,5613450
1,107,371,1928510,5613950
1,102,371,1928510,5614450
1,97,371,1928510,5614950
1,262,376,1929010,5598450
1,257,376,1929010,5598950
1,252,376,1929010,5599450
1,247,376,1929010,5599950
1,242,376,1929010,5600450
1,237,376,1929010,5600950
1,232,376,1929010,5601450
1,227,376,1929010,5601950
1,222,376,1929010,5602450
1,217,376,1929010,5602950
1,212,376,1929010,5603450
1,207,376,1929010,5603950
1,202,376,1929010,5604450
1,197,376,1929010,5604950
1,192,376,1929010,5605450
1,187,376,1929010,5605950
1,182,376,1929010,5606450
1,177,376,1929010,5606950
1,172,376,1929010,5607450
1,167,376,1929010,5607950
1,162,376,1929010,5608450
1,157,376,1929010,5608950
1,152,376,1929010,5609450
1,147,376,1929010,5609950
1,142,376,1929010,5610450
1,137,376,1929010,5610950
1,132,376,1929010,5611450
1,127,376,1929010,5611950
1,122,376,1929010,5612450
1,117,376,1929010,5612950
1,112,376,1929010,5613450
1,107,376,1929010,5613950
1,102,376,1929010,5614450
1,97,376,1929010,5614950
1,257,381,1929510,5598950
1,252,381,1929510,5599450
1,247,381,1929510,5599950
1,242,381,1929510,5600450
1,237,381,1929510,5600950
1,232,381,1929510,5601450
1,227,381,1929510,5601950
1,222,381,1929510,5602450
1,217,381,1929510,5602950
1,212,381,1929510,5603450
1,207,381,1929510,5603950
1,202,381,1929510,5604450
1,197,381,1929510,5604950
1,192,381,1929510,5605450
1,187,381,1929510,5605950
1,182,381,1929510,5606450
1,177,381,1929510,5606950
1,172,381,1929510,5607450
1,167,381,1929510,5607950
1,162,381,1929510,5608450
1,157,381,1929510,5608950
1,152,381,1929510,5609450
1,147,381,1929510,5609950
1,142,381,1929510,5610450
1,137,381,1929510,5610950
1,132,381,1929510,5611450
1,127,381,1929510,5611950
1,122,381,1929510,5612450
1,117,381,1929510,5612950
1,112,381,1929510,5613450
1,107,381,1929510,5613950
1,102,381,1929510,5614450
1,97,381,1929510,5614950
1,92,381,1929510,5615450
1,252,386,1930010,5599450
1,247,386,1930010,5599950
1,242,386,1930010,5600450
1,237,386,1930010,5600950
1,232,386,1930010,5601450
1,227,386,1930010,5601950
1,222,386,1930010,5602450
1,217,386,1930010,5602950
1,212,386,1930010,5603450
1,207,386,1930010,5603950
1,202,386,1930010,5604450
1,197,386,1930010,5604950
1,192,386,1930010,5605450
1,187,386,1930010,5605950
1,182,386,1930010,5606450
1,177,386,1930010,5606950
1,172,386,1930010,5607450
1,167,386,1930010,5607950
1,162,386,1930010,5608450
1,157,386,1930010,5608950
1,152,386,1930010,5609450
1,147,386,1930010,5609950
1,142,386,1930010,5610450
1,137,386,1930010,5610950
1,132,386,1930010,5611450
1,127,386,1930010,5611950
1,122,386,1930010,5612450
1,117,386,1930010,5612950
1,112,386,1930010,5613450
1,107,386,1930010,5613950
1,102,386,1930010,5614450
1,97,386,1930010,5614950
1,92,386,1930010,5615450
1,87,386,1930010,5615950
1,82,386,1930010,5616450
1,77,386,1930010,5616950
1,72,386,1930010,5617450
1,252,391,1930510,5599450
1,247,391,1930510,5599950
1,242,391,1930510,5600450
1,237,391,1930510,5600950
1,232,391,1930510,5601450
1,227,391,1930510,5601950
1,222,391,1930510,5602450
1,217,391,1930510,5602950
1,212,391,1930510,5603450
1,207,391,1930510,5603950
1,202,391,1930510,5604450
1,197,391,1930510,5604950
1,192,391,1930510,5605450
1,187,391,1930510,5605950
1,182,391,1930510,5606450
1,177,391,1930510,5606950
1,172,391,1930510,5607450
1,167,391,1930510,5607950
1,162,391,1930510,5608450
1,157,391,1930510,5608950
1,152,391,1930510,5609450
1,147,391,1930510,5609950
1,142,391,1930510,5610450
1,137,391,1930510,5610950
1,132,391,1930510,5611450
1,127,391,1930510,5611950
1,122,391,1930510,5612450
1,117,391,1930510,5612950
1,112,391,1930510,5613450
1,107,391,1930510,5613950
1,102,391,1930510,5614450
1,97,391,1930510,5614950
1,92,391,1930510,5615450
1,87,391,1930510,5615950
1,82,391,1930510,5616450
1,77,391,1930510,5616950
1,72,391,1930510,5617450
1,67,391,1930510,5617950
1,62,391,1930510,5618450
1,247,396,1931010,5599950
1,242,396,1931010,5600450
1,237,396,1931010,5600950
1,232,396,1931010,5601450
1,227,396,1931010,5601950
1,222,396,1931010,5602450
1,217,396,1931010,5602950
1,212,396,1931010,5603450
1,207,396,1931010,5603950
1,202,396,1931010,5604450
1,197,396,1931010,5604950
1,192,396,1931010,5605450
1,187,396,1931010,5605950
1,182,396,1931010,5606450
1,177,396,1931010,5606950
1,172,396,1931010,5607450
1,167,396,1931010,5607950
1,162,396,1931010,5608450
1,157,396,1931010,5608950
1,152,396,1931010,5609450
1,147,396,1931010,5609950
1,142,396,1931010,5610450
1,137,396,1931010,5610950
1,132,396,1931010,5611450
1,127,396,1931010,5611950
1,122,396,1931010,5612450
1,117,396,1931010,5612950
1,112,396,1931010,5613450
1,107,396,1931010,5613950
1,102,396,1931010,5614450
1,97,396,1931010,5614950
1,92,396,1931010,5615450
1,87,396,1931010,5615950
1,82,396,1931010,5616450
1,77,396,1931010,5616950
1,72,396,1931010,5617450
1,67,396,1931010,5617950
1,62,396,1931010,5618450
1,57,396,1931010,5618950
1,52,396,1931010,5619450
1,242,401,1931510,5600450
1,237,401,1931510,5600950
1,232,401,1931510,5601450
1,227,401,1931510,5601950
1,222,401,1931510,5602450
1,217,401,1931510,5602950
1,212,401,1931510,5603450
1,207,401,1931510,5603950
1,202,401,1931510,5604450
1,197,401,1931510,5604950
1,192,401,1931510,5605450
1,187,401,1931510,5605950
1,182,401,1931510,5606450
1,177,401,1931510,5606950
1,172,401,1931510,5607450
1,167,401,1931510,5607950
1,162,401,1931510,5608450
1,157,401,1931510,5608950
1,152,401,1931510,5609450
1,147,401,1931510,5609950
1,142,401,1931510,5610450
1,137,401,1931510,5610950
1,132,401,1931510,5611450
1,127,401,1931510,5611950
1,122,401,1931510,5612450
1,117,401,1931510,5612950
1,112,401,1931510,5613450
1,107,401,1931510,5613950
1,102,401,1931510,5614450
1,97,401,1931510,5614950
1,92,401,1931510,5615450
1,87,401,1931510,5615950
1,82,401,1931510,5616450
1,77,401,1931510,5616950
1,72,401,1931510,5617450
1,67,401,1931510,5617950
1,62,401,1931510,5618450
1,57,401,1931510,5618950
1,52,401,1931510,5619450
1,242,406,1932010,5600450
1,237,406,1932010,5600950
1,232,406,1932010,5601450
1,227,406,1932010,5601950
1,222,406,1932010,5602450
1,217,406,1932010,5602950
1,212,406,1932010,5603450
1,207,406,1932010,5603950
1,202,406,1932010,5604450
1,197,406,1932010,5604950
1,192,406,1932010,5605450
1,187,406,1932010,5605950
1,182,406,1932010,5606450
1,177,406,1932010,5606950
1,172,406,1932010,5607450
1,167,406,1932010,5607950
1,162,406,1932010,5608450
1,157,406,1932010,5608950
1,152,406,1932010,5609450
1,147,406,1932010,5609950
1,142,406,1932010,5610450
1,137,406,1932010,5610950
1,132,406,1932010,5611450
1,127,406,1932010,5611950
1,122,406,1932010,5612450
1,117,406,1932010,5612950
1,112,406,1932010,5613450
1,107,406,1932010,5613950
1,102,406,1932010,5614450
1,97,406,1932010,5614950
1,92,406,1932010,5615450
1,87,406,1932010,5615950
1,82,406,1932010,5616450
1,77,406,1932010,5616950
1,72,406,1932010,5617450
1,67,406,1932010,5617950
1,62,406,1932010,5618450
1,57,406,1932010,5618950
1,52,406,1932010,5619450
1,47,406,1932010,5619950
1,242,411,1932510,5600450
1,237,411,1932510,5600950
1,232,411,1932510,5601450
1,227,411,1932510,5601950
1,222,411,1932510,5602450
1,217,411,1932510,5602950
1,212,411,1932510,5603450
1,207,411,1932510,5603950
1,202,411,1932510,5604450
1,197,411,1932510,5604950
1,192,411,1932510,5605450
1,187,411,1932510,5605950
1,182,411,1932510,5606450
1,177,411,1932510,5606950
1,172,411,1932510,5607450
1,167,411,1932510,5607950
1,162,411,1932510,5608450
1,157,411,1932510,5608950
1,152,411,1932510,5609450
1,147,411,1932510,5609950
1,142,411,1932510,5610450
1,137,411,1932510,5610950
1,132,411,1932510,5611450
1,127,411,1932510,5611950
1,122,411,1932510,5612450
1,117,411,1932510,5612950
1,112,411,1932510,5613450
1,107,411,1932510,5613950
1,102,411,1932510,5614450
1,97,411,1932510,5614950
1,92,411,1932510,5615450
1,87,411,1932510,5615950
1,82,411,1932510,5616450
1,77,411,1932510,5616950
1,72,411,1932510,5617450
1,67,411,1932510,5617950
1,62,411,1932510,5618450
1,57,411,1932510,5618950
1,52,411,1932510,5619450
1,47,411,1932510,5619950
1,237,416,1933010,5600950
1,232,416,1933010,5601450
1,227,416,1933010,5601950
1,222,416,1933010,5602450
1,217,416,1933010,5602950
1,212,416,1933010,5603450
1,207,416,1933010,5603950
1,202,416,1933010,5604450
1,197,416,1933010,5604950
1,192,416,1933010,5605450
1,187,416,1933010,5605950
1,182,416,1933010,5606450
1,177,416,1933010,5606950
1,172,416,1933010,5607450
1,167,416,1933010,5607950
1,162,416,1933010,5608450
1,157,416,1933010,5608950
1,152,416,1933010,5609450
1,147,416,1933010,5609950
1,142,416,1933010,5610450
1,137,416,1933010,5610950
1,132,416,1933010,5611450
1,127,416,1933010,5611950
1,122,416,1933010,5612450
1,117,416,1933010,5612950
1,112,416,1933010,5613450
1,107,416,1933010,5613950
1,102,416,1933010,5614450
1,97,416,1933010,5614950
1,92,416,1933010,5615450
1,87,416,1933010,5615950
1,82,416,1933010,5616450
1,77,416,1933010,5616950
1,72,416,1933010,5617450
1,67,416,1933010,5617950
1,62,416,1933010,5618450
1,57,416,1933010,5618950
1,52,416,1933010,5619450
1,47,416,1933010,5619950
1,42,416,1933010,5620450
1,232,421,1933510,5601450
1,227,421,1933510,5601950
1,222,421,1933510,5602450
1,217,421,1933510,5602950
1,212,421,1933510,5603450
1,207,421,1933510,5603950
1,202,421,1933510,5604450
1,197,421,1933510,5604950
1,192,421,1933510,5605450
1,187,421,1933510,5605950
1,182,421,1933510,5606450
1,177,421,1933510,5606950
1,172,421,1933510,5607450
1,167,421,1933510,5607950
1,162,421,1933510,5608450
1,157,421,1933510,5608950
1,152,421,1933510,5609450
1,147,421,1933510,5609950
1,142,421,1933510,5610450
1,137,421,1933510,5610950
1,132,421,1933510,5611450
1,127,421,1933510,5611950
1,122,421,1933510,5612450
1,117,421,1933510,5612950
1,112,421,1933510,5613450
1,107,421,1933510,5613950
1,102,421,1933510,5614450
1,97,421,1933510,5614950
1,92,421,1933510,5615450
1,87,421,1933510,5615950
1,82,421,1933510,5616450
1,77,421,1933510,5616950
1,72,421,1933510,5617450
1,67,421,1933510,5617950
1,62,421,1933510,5618450
1,57,421,1933510,5618950
1,52,421,1933510,5619450
1,47,421,1933510,5619950
1,42,421,1933510,5620450
1,232,426,1934010,5601450
1,227,426,1934010,5601950
1,222,426,1934010,5602450
1,217,426,1934010,5602950
1,212,426,1934010,5603450
1,207,426,1934010,5603950
1,202,426,1934010,5604450
1,197,426,1934010,5604950
1,192,426,1934010,5605450
1,187,426,1934010,5605950
1,182,426,1934010,5606450
1,177,426,1934010,5606950
1,172,426,1934010,5607450
1,167,426,1934010,5607950
1,162,426,1934010,5608450
1,157,426,1934010,5608950
1,152,426,1934010,5609450
1,147,426,1934010,5609950
1,142,426,1934010,5610450
1,137,426,1934010,5610950
1,132,426,1934010,5611450
1,127,426,1934010,5611950
1,122,426,1934010,5612450
1,117,426,1934010,5612950
1,112,426,1934010,5613450
1,107,426,1934010,5613950
1,102,426,1934010,5614450
1,97,426,1934010,5614950
1,92,426,1934010,5615450
1,87,426,1934010,5615950
1,82,426,1934010,5616450
1,77,426,1934010,5616950
1,72,426,1934010,5617450
1,67,426,1934010,5617950
1,62,426,1934010,5618450
1,57,426,1934010,5618950
1,52,426,1934010,5619450
1,47,426,1934010,5619950
1,42,426,1934010,5620450
1,237,431,1934510,5600950
1,232,431,1934510,5601450
1,227,431,1934510,5601950
1,222,431,1934510,5602450
1,217,431,1934510,5602950
1,212,431,1934510,5603450
1,207,431,1934510,5603950
1,202,431,1934510,5604450
1,197,431,1934510,5604950
1,192,431,1934510,5605450
1,187,431,1934510,5605950
1,182,431,1934510,5606450
1,177,431,1934510,5606950
1,172,431,1934510,5607450
1,167,431,1934510,5607950
1,162,431,1934510,5608450
1,157,431,1934510,5608950
1,152,431,1934510,5609450
1,147,431,1934510,5609950
1,142,431,1934510,5610450
1,137,431,1934510,5610950
1,132,431,1934510,5611450
1,127,431,1934510,5611950
1,122,431,1934510,5612450
1,117,431,1934510,5612950
1,112,431,1934510,5613450
1,107,431,1934510,5613950
1,102,431,1934510,5614450
1,97,431,1934510,5614950
1,92,431,1934510,5615450
1,87,431,1934510,5615950
1,82,431,1934510,5616450
1,77,431,1934510,5616950
1,72,431,1934510,5617450
1,67,431,1934510,5617950
1,62,431,1934510,5618450
1,57,431,1934510,5618950
1,52,431,1934510,5619450
1,47,431,1934510,5619950
1,42,431,1934510,5620450
1,37,431,1934510,5620950
1,237,436,1935010,5600950
1,232,436,1935010,5601450
1,227,436,1935010,5601950
1,222,436,1935010,5602450
1,217,436,1935010,5602950
1,212,436,1935010,5603450
1,207,436,1935010,5603950
1,202,436,1935010,5604450
1,197,436,1935010,5604950
1,192,436,1935010,5605450
1,187,436,1935010,5605950
1,182,436,1935010,5606450
1,177,436,1935010,5606950
1,172,436,1935010,5607450
1,167,436,1935010,5607950
1,162,436,1935010,5608450
1,157,436,1935010,5608950
1,152,436,1935010,5609450
1,147,436,1935010,5609950
1,142,436,1935010,5610450
1,137,436,1935010,5610950
1,132,436,1935010,5611450
1,127,436,1935010,5611950
1,122,436,1935010,5612450
1,117,436,1935010,5612950
1,112,436,1935010,5613450
1,107,436,1935010,5613950
1,102,436,1935010,5614450
1,97,436,1935010,5614950
1,92,436,1935010,5615450
1,87,436,1935010,5615950
1,82,436,1935010,5616450
1,77,436,1935010,5616950
1,72,436,1935010,5617450
1,67,436,1935010,5617950
1,62,436,1935010,5618450
1,57,436,1935010,5618950
1,52,436,1935010,5619450
1,47,436,1935010,5619950
1,42,436,1935010,5620450
1,37,436,1935010,5620950
1,232,441,1935510,5601450
1,227,441,1935510,5601950
1,222,441,1935510,5602450
1,217,441,1935510,5602950
1,212,441,1935510,5603450
1,207,441,1935510,5603950
1,202,441,1935510,5604450
1,197,441,1935510,5604950
1,192,441,1935510,5605450
1,187,441,1935510,5605950
1,182,441,1935510,5606450
1,177,441,1935510,5606950
1,172,441,1935510,5607450
1,167,441,1935510,5607950
1,162,441,1935510,5608450
1,157,441,1935510,5608950
1,152,441,1935510,5609450
1,147,441,1935510,5609950
1,142,441,1935510,5610450
1,137,441,1935510,5610950
1,132,441,1935510,5611450
1,127,441,1935510,5611950
1,122,441,1935510,5612450
1,117,441,1935510,5612950
1,112,441,1935510,5613450
1,107,441,1935510,5613950
1,102,441,1935510,5614450
1,97,441,1935510,5614950
1,92,441,1935510,5615450
1,87,441,1935510,5615950
1,82,441,1935510,5616450
1,77,441,1935510,5616950
1,72,441,1935510,5617450
1,67,441,1935510,5617950
1,62,441,1935510,5618450
1,57,441,1935510,5618950
1,52,441,1935510,5619450
1,47,441,1935510,5619950
1,42,441,1935510,5620450
1,37,441,1935510,5620950
1,257,446,1936010,5598950
1,232,446,1936010,5601450
1,227,446,1936010,5601950
1,222,446,1936010,5602450
1,217,446,1936010,5602950
1,212,446,1936010,5603450
1,207,446,1936010,5603950
1,202,446,1936010,5604450
1,197,446,1936010,5604950
1,192,446,1936010,5605450
1,187,446,1936010,5605950
1,182,446,1936010,5606450
1,177,446,1936010,5606950
1,172,446,1936010,5607450
1,167,446,1936010,5607950
1,162,446,1936010,5608450
1,157,446,1936010,5608950
1,152,446,1936010,5609450
1,147,446,1936010,5609950
1,142,446,1936010,5610450
1,137,446,1936010,5610950
1,132,446,1936010,5611450
1,127,446,1936010,5611950
1,122,446,1936010,5612450
1,117,446,1936010,5612950
1,112,446,1936010,5613450
1,107,446,1936010,5613950
1,102,446,1936010,5614450
1,97,446,1936010,5614950
1,92,446,1936010,5615450
1,87,446,1936010,5615950
1,82,446,1936010,5616450
1,77,446,1936010,5616950
1,72,446,1936010,5617450
1,67,446,1936010,5617950
1,62,446,1936010,5618450
1,57,446,1936010,5618950
1,52,446,1936010,5619450
1,47,446,1936010,5619950
1,42,446,1936010,5620450
1,282,451,1936510,5596450
1,262,451,1936510,5598450
1,257,451,1936510,5598950
1,252,451,1936510,5599450
1,247,451,1936510,5599950
1,242,451,1936510,5600450
1,237,451,1936510,5600950
1,232,451,1936510,5601450
1,227,451,1936510,5601950
1,222,451,1936510,5602450
1,217,451,1936510,5602950
1,212,451,1936510,5603450
1,207,451,1936510,5603950
1,202,451,1936510,5604450
1,197,451,1936510,5604950
1,192,451,1936510,5605450
1,187,451,1936510,5605950
1,182,451,1936510,5606450
1,177,451,1936510,5606950
1,172,451,1936510,5607450
1,167,451,1936510,5607950
1,162,451,1936510,5608450
1,157,451,1936510,5608950
1,152,451,1936510,5609450
1,147,451,1936510,5609950
1,142,451,1936510,5610450
1,137,451,1936510,5610950
1,132,451,1936510,5611450
1,127,451,1936510,5611950
1,122,451,1936510,5612450
1,117,451,1936510,5612950
1,112,451,1936510,5613450
1,107,451,1936510,5613950
1,102,451,1936510,5614450
1,97,451,1936510,5614950
1,92,451,1936510,5615450
1,87,451,1936510,5615950
1,82,451,1936510,5616450
1,77,451,1936510,5616950
1,72,451,1936510,5617450
1,67,451,1936510,5617950
1,62,451,1936510,5618450
1,57,451,1936510,5618950
1,52,451,1936510,5619450
1,47,451,1936510,5619950
1,42,451,1936510,5620450
1,37,451,1936510,5620950
1,282,456,1937010,5596450
1,277,456,1937010,5596950
1,272,456,1937010,5597450
1,267,456,1937010,5597950
1,262,456,1937010,5598450
1,257,456,1937010,5598950
1,252,456,1937010,5599450
1,247,456,1937010,5599950
1,242,456,1937010,5600450
1,237,456,1937010,5600950
1,232,456,1937010,5601450
1,227,456,1937010,5601950
1,222,456,1937010,5602450
1,217,456,1937010,5602950
1,212,456,1937010,5603450
1,207,456,1937010,5603950
1,202,456,1937010,5604450
1,197,456,1937010,5604950
1,192,456,1937010,5605450
1,187,456,1937010,5605950
1,182,456,1937010,5606450
1,177,456,1937010,5606950
1,172,456,1937010,5607450
1,167,456,1937010,5607950
1,162,456,1937010,5608450
1,157,456,1937010,5608950
1,152,456,1937010,5609450
1,147,456,1937010,5609950
1,142,456,1937010,5610450
1,137,456,1937010,5610950
1,132,456,1937010,5611450
1,127,456,1937010,5611950
1,122,456,1937010,5612450
1,117,456,1937010,5612950
1,112,456,1937010,5613450
1,107,456,1937010,5613950
1,102,456,1937010,5614450
1,97,456,1937010,5614950
1,92,456,1937010,5615450
1,87,456,1937010,5615950
1,82,456,1937010,5616450
1,77,456,1937010,5616950
1,72,456,1937010,5617450
1,67,456,1937010,5617950
1,62,456,1937010,5618450
1,57,456,1937010,5618950
1,52,456,1937010,5619450
1,47,456,1937010,5619950
1,42,456,1937010,5620450
1,37,456,1937010,5620950
1,32,456,1937010,5621450
1,277,461,1937510,5596950
1,272,461,1937510,5597450
1,267,461,1937510,5597950
1,262,461,1937510,5598450
1,257,461,1937510,5598950
1,247,461,1937510,5599950
1,242,461,1937510,5600450
1,237,461,1937510,5600950
1,232,461,1937510,5601450
1,227,461,1937510,5601950
1,217,461,1937510,5602950
1,212,461,1937510,5603450
1,207,461,1937510,5603950
1,202,461,1937510,5604450
1,197,461,1937510,5604950
1,192,461,1937510,5605450
1,187,461,1937510,5605950
1,182,461,1937510,5606450
1,177,461,1937510,5606950
1,172,461,1937510,5607450
1,167,461,1937510,5607950
1,162,461,1937510,5608450
1,157,461,1937510,5608950
1,152,461,1937510,5609450
1,147,461,1937510,5609950
1,142,461,1937510,5610450
1,137,461,1937510,5610950
1,132,461,1937510,5611450
1,127,461,1937510,5611950
1,122,461,1937510,5612450
1,117,461,1937510,5612950
1,112,461,1937510,5613450
1,107,461,1937510,5613950
1,102,461,1937510,5614450
1,97,461,1937510,5614950
1,92,461,1937510,5615450
1,87,461,1937510,5615950
1,82,461,1937510,5616450
1,77,461,1937510,5616950
1,72,461,1937510,5617450
1,67,461,1937510,5617950
1,62,461,1937510,5618450
1,57,461,1937510,5618950
1,52,461,1937510,5619450
1,47,461,1937510,5619950
1,42,461,1937510,5620450
1,37,461,1937510,5620950
1,32,461,1937510,5621450
1,237,466,1938010,5600950
1,197,466,1938010,5604950
1,192,466,1938010,5605450
1,187,466,1938010,5605950
1,182,466,1938010,5606450
1,177,466,1938010,5606950
1,172,466,1938010,5607450
1,167,466,1938010,5607950
1,162,466,1938010,5608450
1,157,466,1938010,5608950
1,152,466,1938010,5609450
1,147,466,1938010,5609950
1,142,466,1938010,5610450
1,137,466,1938010,5610950
1,132,466,1938010,5611450
1,127,466,1938010,5611950
1,122,466,1938010,5612450
1,117,466,1938010,5612950
1,112,466,1938010,5613450
1,107,466,1938010,5613950
1,102,466,1938010,5614450
1,97,466,1938010,5614950
1,92,466,1938010,5615450
1,87,466,1938010,5615950
1,82,466,1938010,5616450
1,77,466,1938010,5616950
1,72,466,1938010,5617450
1,67,466,1938010,5617950
1,62,466,1938010,5618450
1,57,466,1938010,5618950
1,52,466,1938010,5619450
1,47,466,1938010,5619950
1,42,466,1938010,5620450
1,37,466,1938010,5620950
1,32,466,1938010,5621450
1,27,466,1938010,5621950
1,192,471,1938510,5605450
1,187,471,1938510,5605950
1,182,471,1938510,5606450
1,177,471,1938510,5606950
1,172,471,1938510,5607450
1,167,471,1938510,5607950
1,162,471,1938510,5608450
1,157,471,1938510,5608950
1,152,471,1938510,5609450
1,147,471,1938510,5609950
1,142,471,1938510,5610450
1,137,471,1938510,5610950
1,132,471,1938510,5611450
1,127,471,1938510,5611950
1,122,471,1938510,5612450
1,117,471,1938510,5612950
1,112,471,1938510,5613450
1,107,471,1938510,5613950
1,102,471,1938510,5614450
1,97,471,1938510,5614950
1,92,471,1938510,5615450
1,87,471,1938510,5615950
1,82,471,1938510,5616450
1,52,471,1938510,5619450
1,47,471,1938510,5619950
1,42,471,1938510,5620450
1,37,471,1938510,5620950
1,32,471,1938510,5621450
1,192,476,1939010,5605450
1,187,476,1939010,5605950
1,182,476,1939010,5606450
1,177,476,1939010,5606950
1,172,476,1939010,5607450
1,167,476,1939010,5607950
1,162,476,1939010,5608450
1,157,476,1939010,5608950
1,152,476,1939010,5609450
1,147,476,1939010,5609950
1,142,476,1939010,5610450
1,137,476,1939010,5610950
1,132,476,1939010,5611450
1,127,476,1939010,5611950
1,122,476,1939010,5612450
1,117,476,1939010,5612950
1,112,476,1939010,5613450
1,187,481,1939510,5605950
1,182,481,1939510,5606450
1,177,481,1939510,5606950
1,172,481,1939510,5607450
1,167,481,1939510,5607950
1,162,481,1939510,5608450
1,157,481,1939510,5608950
1,152,481,1939510,5609450
1,147,481,1939510,5609950
1,142,481,1939510,5610450
1,137,481,1939510,5610950
1,132,481,1939510,5611450
1,127,481,1939510,5611950
1,182,486,1940010,5606450
1,177,486,1940010,5606950
1,172,486,1940010,5607450
1,167,486,1940010,5607950
1,162,486,1940010,5608450
1,157,486,1940010,5608950
1,152,486,1940010,5609450
1,147,486,1940010,5609950
1,142,486,1940010,5610450
1,177,491,1940510,5606950
1,172,491,1940510,5607450
1,167,491,1940510,5607950
1,162,491,1940510,5608450
1,157,491,1940510,5608950
1,152,491,1940510,5609450
1,172,496,1941010,5607450
1,167,496,1941010,5607950
1,162,496,1941010,5608450
1,167,501,1941510,5607950
2,187,261,1917510,5605950
2,197,266,1918010,5604950
2,192,266,1918010,5605450
2,187,266,1918010,5605950
2,182,266,1918010,5606450
2,202,271,1918510,5604450
2,197,271,1918510,5604950
2,192,271,1918510,5605450
2,187,271,1918510,5605950
2,182,271,1918510,5606450
2,177,271,1918510,5606950
2,147,271,1918510,5609950
2,202,276,1919010,5604450
2,197,276,1919010,5604950
2,192,276,1919010,5605450
2,187,276,1919010,5605950
2,182,276,1919010,5606450
2,177,276,1919010,5606950
2,152,276,1919010,5609450
2,147,276,1919010,5609950
2,142,276,1919010,5610450
2,202,281,1919510,5604450
2,197,281,1919510,5604950
2,192,281,1919510,5605450
2,187,281,1919510,5605950
2,182,281,1919510,5606450
2,177,281,1919510,5606950
2,172,281,1919510,5607450
2,157,281,1919510,5608950
2,152,281,1919510,5609450
2,147,281,1919510,5609950
2,142,281,1919510,5610450
2,137,281,1919510,5610950
2,202,286,1920010,5604450
2,197,286,1920010,5604950
2,192,286,1920010,5605450
2,187,286,1920010,5605950
2,182,286,1920010,5606450
2,177,286,1920010,5606950
2,157,286,1920010,5608950
2,152,286,1920010,5609450
2,147,286,1920010,5609950
2,142,286,1920010,5610450
2,137,286,1920010,5610950
2,202,291,1920510,5604450
2,197,291,1920510,5604950
2,192,291,1920510,5605450
2,187,291,1920510,5605950
2,182,291,1920510,5606450
2,177,291,1920510,5606950
2,172,291,1920510,5607450
2,167,291,1920510,5607950
2,157,291,1920510,5608950
2,152,291,1920510,5609450
2,147,291,1920510,5609950
2,142,291,1920510,5610450
2,137,291,1920510,5610950
2,37,291,1920510,5620950
2,217,296,1921010,5602950
2,212,296,1921010,5603450
2,207,296,1921010,5603950
2,202,296,1921010,5604450
2,197,296,1921010,5604950
2,192,296,1921010,5605450
2,187,296,1921010,5605950
2,182,296,1921010,5606450
2,177,296,1921010,5606950
2,172,296,1921010,5607450
2,167,296,1921010,5607950
2,162,296,1921010,5608450
2,157,296,1921010,5608950
2,152,296,1921010,5609450
2,147,296,1921010,5609950
2,142,296,1921010,5610450
2,137,296,1921010,5610950
2,132,296,1921010,5611450
2,42,296,1921010,5620450
2,37,296,1921010,5620950
2,232,301,1921510,5601450
2,227,301,1921510,5601950
2,222,301,1921510,5602450
2,217,301,1921510,5602950
2,212,301,1921510,5603450
2,207,301,1921510,5603950
2,202,301,1921510,5604450
2,197,301,1921510,5604950
2,192,301,1921510,5605450
2,187,301,1921510,5605950
2,182,301,1921510,5606450
2,177,301,1921510,5606950
2,172,301,1921510,5607450
2,167,301,1921510,5607950
2,162,301,1921510,5608450
2,157,301,1921510,5608950
2,152,301,1921510,5609450
2,147,301,1921510,5609950
2,142,301,1921510,5610450
2,137,301,1921510,5610950
2,132,301,1921510,5611450
2,42,301,1921510,5620450
2,37,301,1921510,5620950
2,32,301,1921510,5621450
2,242,306,1922010,5600450
2,237,306,1922010,5600950
2,232,306,1922010,5601450
2,227,306,1922010,5601950
2,222,306,1922010,5602450
2,217,306,1922010,5602950
2,212,306,1922010,5603450
2,207,306,1922010,5603950
2,202,306,1922010,5604450
2,197,306,1922010,5604950
2,192,306,1922010,5605450
2,187,306,1922010,5605950
2,182,306,1922010,5606450
2,177,306,1922010,5606950
2,172,306,1922010,5607450
2,167,306,1922010,5607950
2,162,306,1922010,5608450
2,157,306,1922010,5608950
2,152,306,1922010,5609450
2,147,306,1922010,5609950
2,142,306,1922010,5610450
2,137,306,1922010,5610950
2,132,306,1922010,5611450
2,127,306,1922010,5611950
2,42,306,1922010,5620450
2,37,306,1922010,5620950
2,32,306,1922010,5621450
2,267,311,1922510,5597950
2,262,311,1922510,5598450
2,257,311,1922510,5598950
2,252,311,1922510,5599450
2,247,311,1922510,5599950
2,242,311,1922510,5600450
2,237,311,1922510,5600950
2,232,311,1922510,5601450
2,227,311,1922510,5601950
2,222,311,1922510,5602450
2,217,311,1922510,5602950
2,212,311,1922510,5603450
2,207,311,1922510,5603950
2,202,311,1922510,5604450
2,197,311,1922510,5604950
2,192,311,1922510,5605450
2,187,311,1922510,5605950
2,182,311,1922510,5606450
2,177,311,1922510,5606950
2,172,311,1922510,5607450
2,167,311,1922510,5607950
2,162,311,1922510,5608450
2,157,311,1922510,5608950
2,152,311,1922510,5609450
2,147,311,1922510,5609950
2,142,311,1922510,5610450
2,137,311,1922510,5610950
2,132,311,1922510,5611450
2,127,311,1922510,5611950
2,92,311,1922510,5615450
2,87,311,1922510,5615950
2,82,311,1922510,5616450
2,77,311,1922510,5616950
2,42,311,1922510,5620450
2,37,311,1922510,5620950
2,262,316,1923010,5598450
2,257,316,1923010,5598950
2,252,316,1923010,5599450
2,247,316,1923010,5599950
2,242,316,1923010,5600450
2,237,316,1923010,5600950
2,232,316,1923010,5601450
2,227,316,1923010,5601950
2,222,316,1923010,5602450
2,217,316,1923010,5602950
2,212,316,1923010,5603450
2,207,316,1923010,5603950
2,202,316,1923010,5604450
2,197,316,1923010,5604950
2,192,316,1923010,5605450
2,187,316,1923010,5605950
2,182,316,1923010,5606450
2,177,316,1923010,5606950
2,172,316,1923010,5607450
2,167,316,1923010,5607950
2,162,316,1923010,5608450
2,157,316,1923010,5608950
2,152,316,1923010,5609450
2,147,316,1923010,5609950
2,137,316,1923010,5610950
2,132,316,1923010,5611450
2,127,316,1923010,5611950
2,107,316,1923010,5613950
2,102,316,1923010,5614450
2,97,316,1923010,5614950
2,92,316,1923010,5615450
2,87,316,1923010,5615950
2,82,316,1923010,5616450
2,77,316,1923010,5616950
2,72,316,1923010,5617450
2,67,316,1923010,5617950
2,62,316,1923010,5618450
2,57,316,1923010,5618950
2,52,316,1923010,5619450
2,47,316,1923010,5619950
2,42,316,1923010,5620450
2,37,316,1923010,5620950
2,32,316,1923010,5621450
2,262,321,1923510,5598450
2,257,321,1923510,5598950
2,252,321,1923510,5599450
2,247,321,1923510,5599950
2,242,321,1923510,5600450
2,237,321,1923510,5600950
2,232,321,1923510,5601450
2,227,321,1923510,5601950
2,222,321,1923510,5602450
2,217,321,1923510,5602950
2,212,321,1923510,5603450
2,207,321,1923510,5603950
2,202,321,1923510,5604450
2,197,321,1923510,5604950
2,192,321,1923510,5605450
2,187,321,1923510,5605950
2,182,321,1923510,5606450
2,177,321,1923510,5606950
2,172,321,1923510,5607450
2,167,321,1923510,5607950
2,162,321,1923510,5608450
2,157,321,1923510,5608950
2,152,321,1923510,5609450
2,147,321,1923510,5609950
2,142,321,1923510,5610450
2,137,321,1923510,5610950
2,132,321,1923510,5611450
2,127,321,1923510,5611950
2,122,321,1923510,5612450
2,117,321,1923510,5612950
2,112,321,1923510,5613450
2,107,321,1923510,5613950
2,102,321,1923510,5614450
2,97,321,1923510,5614950
2,92,321,1923510,5615450
2,87,321,1923510,5615950
2,82,321,1923510,5616450
2,77,321,1923510,5616950
2,72,321,1923510,5617450
2,67,321,1923510,5617950
2,62,321,1923510,5618450
2,57,321,1923510,5618950
2,52,321,1923510,5619450
2,47,321,1923510,5619950
2,42,321,1923510,5620450
2,37,321,1923510,5620950
2,32,321,1923510,5621450
2,257,326,1924010,5598950
2,252,326,1924010,5599450
2,247,326,1924010,5599950
2,242,326,1924010,5600450
2,237,326,1924010,5600950
2,232,326,1924010,5601450
2,227,326,1924010,5601950
2,222,326,1924010,5602450
2,217,326,1924010,5602950
2,212,326,1924010,5603450
2,207,326,1924010,5603950
2,202,326,1924010,5604450
2,197,326,1924010,5604950
2,192,326,1924010,5605450
2,187,326,1924010,5605950
2,182,326,1924010,5606450
2,177,326,1924010,5606950
2,172,326,1924010,5607450
2,167,326,1924010,5607950
2,162,326,1924010,5608450
2,157,326,1924010,5608950
2,152,326,1924010,5609450
2,147,326,1924010,5609950
2,142,326,1924010,5610450
2,137,326,1924010,5610950
2,132,326,1924010,5611450
2,127,326,1924010,5611950
2,122,326,1924010,5612450
2,117,326,1924010,5612950
2,112,326,1924010,5613450
2,107,326,1924010,5613950
2,92,326,1924010,5615450
2,87,326,1924010,5615950
2,82,326,1924010,5616450
2,77,326,1924010,5616950
2,72,326,1924010,5617450
2,67,326,1924010,5617950
2,62,326,1924010,5618450
2,57,326,1924010,5618950
2,52,326,1924010,5619450
2,47,326,1924010,5619950
2,42,326,1924010,5620450
2,37,326,1924010,5620950
2,32,326,1924010,5621450
2,252,331,1924510,5599450
2,247,331,1924510,5599950
2,242,331,1924510,5600450
2,237,331,1924510,5600950
2,232,331,1924510,5601450
2,227,331,1924510,5601950
2,222,331,1924510,5602450
2,217,331,1924510,5602950
2,212,331,1924510,5603450
2,207,331,1924510,5603950
2,202,331,1924510,5604450
2,197,331,1924510,5604950
2,192,331,1924510,5605450
2,187,331,1924510,5605950
2,182,331,1924510,5606450
2,177,331,1924510,5606950
2,172,331,1924510,5607450
2,167,331,1924510,5607950
2,162,331,1924510,5608450
2,157,331,1924510,5608950
2,152,331,1924510,5609450
2,147,331,1924510,5609950
2,142,331,1924510,5610450
2,137,331,1924510,5610950
2,132,331,1924510,5611450
2,127,331,1924510,5611950
2,122,331,1924510,5612450
2,117,331,1924510,5612950
2,112,331,1924510,5613450
2,107,331,1924510,5613950
2,87,331,1924510,5615950
2,82,331,1924510,5616450
2,77,331,1924510,5616950
2,72,331,1924510,5617450
2,67,331,1924510,5617950
2,62,331,1924510,5618450
2,57,331,1924510,5618950
2,52,331,1924510,5619450
2,47,331,1924510,5619950
2,42,331,1924510,5620450
2,37,331,1924510,5620950
2,252,336,1925010,5599450
2,247,336,1925010,5599950
2,242,336,1925010,5600450
2,237,336,1925010,5600950
2,232,336,1925010,5601450
2,227,336,1925010,5601950
2,222,336,1925010,5602450
2,217,336,1925010,5602950
2,212,336,1925010,5603450
2,207,336,1925010,5603950
2,202,336,1925010,5604450
2,197,336,1925010,5604950
2,192,336,1925010,5605450
2,187,336,1925010,5605950
2,182,336,1925010,5606450
2,177,336,1925010,5606950
2,172,336,1925010,5607450
2,167,336,1925010,5607950
2,162,336,1925010,5608450
2,157,336,1925010,5608950
2,152,336,1925010,5609450
2,147,336,1925010,5609950
2,142,336,1925010,5610450
2,137,336,1925010,5610950
2,132,336,1925010,5611450
2,127,336,1925010,5611950
2,122,336,1925010,5612450
2,117,336,1925010,5612950
2,72,336,1925010,5617450
2,67,336,1925010,5617950
2,62,336,1925010,5618450
2,57,336,1925010,5618950
2,52,336,1925010,5619450
2,47,336,1925010,5619950
2,42,336,1925010,5620450
2,257,341,1925510,5598950
2,252,341,1925510,5599450
2,247,341,1925510,5599950
2,242,341,1925510,5600450
2,237,341,1925510,5600950
2,232,341,1925510,5601450
2,227,341,1925510,5601950
2,222,341,1925510,5602450
2,217,341,1925510,5602950
2,212,341,1925510,5603450
2,207,341,1925510,5603950
2,202,341,1925510,5604450
2,197,341,1925510,5604950
2,192,341,1925510,5605450
2,187,341,1925510,5605950
2,182,341,1925510,5606450
2,177,341,1925510,5606950
2,172,341,1925510,5607450
2,167,341,1925510,5607950
2,162,341,1925510,5608450
2,157,341,1925510,5608950
2,152,341,1925510,5609450
2,147,341,1925510,5609950
2,142,341,1925510,5610450
2,137,341,1925510,5610950
2,132,341,1925510,5611450
2,127,341,1925510,5611950
2,122,341,1925510,5612450
2,117,341,1925510,5612950
2,112,341,1925510,5613450
2,57,341,1925510,5618950
2,52,341,1925510,5619450
2,282,346,1926010,5596450
2,262,346,1926010,5598450
2,257,346,1926010,5598950
2,252,346,1926010,5599450
2,247,346,1926010,5599950
2,242,346,1926010,5600450
2,237,346,1926010,5600950
2,232,346,1926010,5601450
2,227,346,1926010,5601950
2,222,346,1926010,5602450
2,217,346,1926010,5602950
2,212,346,1926010,5603450
2,207,346,1926010,5603950
2,202,346,1926010,5604450
2,197,346,1926010,5604950
2,192,346,1926010,5605450
2,187,346,1926010,5605950
2,182,346,1926010,5606450
2,177,346,1926010,5606950
2,172,346,1926010,5607450
2,167,346,1926010,5607950
2,162,346,1926010,5608450
2,157,346,1926010,5608950
2,152,346,1926010,5609450
2,147,346,1926010,5609950
2,142,346,1926010,5610450
2,137,346,1926010,5610950
2,132,346,1926010,5611450
2,127,346,1926010,5611950
2,122,346,1926010,5612450
2,117,346,1926010,5612950
2,112,346,1926010,5613450
2,287,351,1926510,5595950
2,282,351,1926510,5596450
2,277,351,1926510,5596950
2,272,351,1926510,5597450
2,267,351,1926510,5597950
2,262,351,1926510,5598450
2,257,351,1926510,5598950
2,252,351,1926510,5599450
2,247,351,1926510,5599950
2,242,351,1926510,5600450
2,237,351,1926510,5600950
2,232,351,1926510,5601450
2,227,351,1926510,5601950
2,222,351,1926510,5602450
2,217,351,1926510,5602950
2,212,351,1926510,5603450
2,207,351,1926510,5603950
2,202,351,1926510,5604450
2,197,351,1926510,5604950
2,192,351,1926510,5605450
2,187,351,1926510,5605950
2,182,351,1926510,5606450
2,177,351,1926510,5606950
2,172,351,1926510,5607450
2,167,351,1926510,5607950
2,162,351,1926510,5608450
2,157,351,1926510,5608950
2,152,351,1926510,5609450
2,147,351,1926510,5609950
2,142,351,1926510,5610450
2,137,351,1926510,5610950
2,132,351,1926510,5611450
2,127,351,1926510,5611950
2,122,351,1926510,5612450
2,117,351,1926510,5612950
2,112,351,1926510,5613450
2,102,351,1926510,5614450
2,282,356,1927010,5596450
2,277,356,1927010,5596950
2,272,356,1927010,5597450
2,267,356,1927010,5597950
2,262,356,1927010,5598450
2,257,356,1927010,5598950
2,252,356,1927010,5599450
2,247,356,1927010,5599950
2,242,356,1927010,5600450
2,237,356,1927010,5600950
2,232,356,1927010,5601450
2,227,356,1927010,5601950
2,222,356,1927010,5602450
2,217,356,1927010,5602950
2,212,356,1927010,5603450
2,207,356,1927010,5603950
2,202,356,1927010,5604450
2,197,356,1927010,5604950
2,192,356,1927010,5605450
2,187,356,1927010,5605950
2,182,356,1927010,5606450
2,177,356,1927010,5606950
2,172,356,1927010,5607450
2,167,356,1927010,5607950
2,162,356,1927010,5608450
2,157,356,1927010,5608950
2,152,356,1927010,5609450
2,147,356,1927010,5609950
2,142,356,1927010,5610450
2,137,356,1927010,5610950
2,132,356,1927010,5611450
2,127,356,1927010,5611950
2,122,356,1927010,5612450
2,117,356,1927010,5612950
2,112,356,1927010,5613450
2,102,356,1927010,5614450
2,97,356,1927010,5614950
2,92,356,1927010,5615450
2,277,361,1927510,5596950
2,272,361,1927510,5597450
2,267,361,1927510,5597950
2,262,361,1927510,5598450
2,257,361,1927510,5598950
2,252,361,1927510,5599450
2,247,361,1927510,5599950
2,242,361,1927510,5600450
2,237,361,1927510,5600950
2,232,361,1927510,5601450
2,227,361,1927510,5601950
2,222,361,1927510,5602450
2,217,361,1927510,5602950
2,212,361,1927510,5603450
2,207,361,1927510,5603950
2,202,361,1927510,5604450
2,197,361,1927510,5604950
2,192,361,1927510,5605450
2,187,361,1927510,5605950
2,182,361,1927510,5606450
2,177,361,1927510,5606950
2,172,361,1927510,5607450
2,167,361,1927510,5607950
2,162,361,1927510,5608450
2,157,361,1927510,5608950
2,152,361,1927510,5609450
2,147,361,1927510,5609950
2,142,361,1927510,5610450
2,137,361,1927510,5610950
2,132,361,1927510,5611450
2,127,361,1927510,5611950
2,122,361,1927510,5612450
2,117,361,1927510,5612950
2,112,361,1927510,5613450
2,102,361,1927510,5614450
2,97,361,1927510,5614950
2,92,361,1927510,5615450
2,272,366,1928010,5597450
2,267,366,1928010,5597950
2,262,366,1928010,5598450
2,257,366,1928010,5598950
2,252,366,1928010,5599450
2,247,366,1928010,5599950
2,242,366,1928010,5600450
2,237,366,1928010,5600950
2,232,366,1928010,5601450
2,227,366,1928010,5601950
2,222,366,1928010,5602450
2,217,366,1928010,5602950
2,212,366,1928010,5603450
2,207,366,1928010,5603950
2,202,366,1928010,5604450
2,197,366,1928010,5604950
2,192,366,1928010,5605450
2,187,366,1928010,5605950
2,182,366,1928010,5606450
2,177,366,1928010,5606950
2,172,366,1928010,5607450
2,167,366,1928010,5607950
2,162,366,1928010,5608450
2,157,366,1928010,5608950
2,152,366,1928010,5609450
2,147,366,1928010,5609950
2,142,366,1928010,5610450
2,137,366,1928010,5610950
2,132,366,1928010,5611450
2,127,366,1928010,5611950
2,122,366,1928010,5612450
2,117,366,1928010,5612950
2,112,366,1928010,5613450
2,102,366,1928010,5614450
2,97,366,1928010,5614950
2,267,371,1928510,5597950
2,262,371,1928510,5598450
2,257,371,1928510,5598950
2,252,371,1928510,5599450
2,247,371,1928510,5599950
2,242,371,1928510,5600450
2,237,371,1928510,5600950
2,232,371,1928510,5601450
2,227,371,1928510,5601950
2,222,371,1928510,5602450
2,217,371,1928510,5602950
2,212,371,1928510,5603450
2,207,371,1928510,5603950
2,202,371,1928510,5604450
2,197,371,1928510,5604950
2,192,371,1928510,5605450
2,187,371,1928510,5605950
2,182,371,1928510,5606450
2,177,371,1928510,5606950
2,172,371,1928510,5607450
2,167,371,1928510,5607950
2,162,371,1928510,5608450
2,157,371,1928510,5608950
2,152,371,1928510,5609450
2,147,371,1928510,5609950
2,142,371,1928510,5610450
2,137,371,1928510,5610950
2,132,371,1928510,5611450
2,127,371,1928510,5611950
2,122,371,1928510,5612450
2,117,371,1928510,5612950
2,112,371,1928510,5613450
2,107,371,1928510,5613950
2,102,371,1928510,5614450
2,97,371,1928510,5614950
2,262,376,1929010,5598450
2,257,376,1929010,5598950
2,252,376,1929010,5599450
2,247,376,1929010,5599950
2,242,376,1929010,5600450
2,237,376,1929010,5600950
2,232,376,1929010,5601450
2,227,376,1929010,5601950
2,222,376,1929010,5602450
2,217,376,1929010,5602950
2,212,376,1929010,5603450
2,207,376,1929010,5603950
2,202,376,1929010,5604450
2,197,376,1929010,5604950
2,192,376,1929010,5605450
2,187,376,1929010,5605950
2,182,376,1929010,5606450
2,177,376,1929010,5606950
2,172,376,1929010,5607450
2,167,376,1929010,5607950
2,162,376,1929010,5608450
2,157,376,1929010,5608950
2,152,376,1929010,5609450
2,147,376,1929010,5609950
2,142,376,1929010,5610450
2,137,376,1929010,5610950
2,132,376,1929010,5611450
2,127,376,1929010,5611950
2,122,376,1929010,5612450
2,117,376,1929010,5612950
2,112,376,1929010,5613450
2,107,376,1929010,5613950
2,102,376,1929010,5614450
2,97,376,1929010,5614950
2,257,381,1929510,5598950
2,252,381,1929510,5599450
2,247,381,1929510,5599950
2,242,381,1929510,5600450
2,237,381,1929510,5600950
2,232,381,1929510,5601450
2,227,381,1929510,5601950
2,222,381,1929510,5602450
2,217,381,1929510,5602950
2,212,381,1929510,5603450
2,207,381,1929510,5603950
2,202,381,1929510,5604450
2,197,381,1929510,5604950
2,192,381,1929510,5605450
2,187,381,1929510,5605950
2,182,381,1929510,5606450
2,177,381,1929510,5606950
2,172,381,1929510,5607450
2,167,381,1929510,5607950
2,162,381,1929510,5608450
2,157,381,1929510,5608950
2,152,381,1929510,5609450
2,147,381,1929510,5609950
2,142,381,1929510,5610450
2,137,381,1929510,5610950
2,132,381,1929510,5611450
2,127,381,1929510,5611950
2,122,381,1929510,5612450
2,117,381,1929510,5612950
2,112,381,1929510,5613450
2,107,381,1929510,5613950
2,102,381,1929510,5614450
2,97,381,1929510,5614950
2,92,381,1929510,5615450
2,252,386,1930010,5599450
2,247,386,1930010,5599950
2,242,386,1930010,5600450
2,237,386,1930010,5600950
2,232,386,1930010,5601450
2,227,386,1930010,5601950
2,222,386,1930010,5602450
2,217,386,1930010,5602950
2,212,386,1930010,5603450
2,207,386,1930010,5603950
2,202,386,1930010,5604450
2,197,386,1930010,5604950
2,192,386,1930010,5605450
2,187,386,1930010,5605950
2,182,386,1930010,5606450
2,177,386,1930010,5606950
2,172,386,1930010,5607450
2,167,386,1930010,5607950
2,162,386,1930010,5608450
2,157,386,1930010,5608950
2,152,386,1930010,5609450
2,147,386,1930010,5609950
2,142,386,1930010,5610450
2,137,386,1930010,5610950
2,132,386,1930010,5611450
2,127,386,1930010,5611950
2,122,386,1930010,5612450
2,117,386,1930010,5612950
2,112,386,1930010,5613450
2,107,386,1930010,5613950
2,102,386,1930010,5614450
2,97,386,1930010,5614950
2,92,386,1930010,5615450
2,87,386,1930010,5615950
2,82,386,1930010,5616450
2,77,386,1930010,5616950
2,72,386,1930010,5617450
2,247,391,1930510,5599950
2,242,391,1930510,5600450
2,237,391,1930510,5600950
2,232,391,1930510,5601450
2,227,391,1930510,5601950
2,222,391,1930510,5602450
2,217,391,1930510,5602950
2,212,391,1930510,5603450
2,207,391,1930510,5603950
2,202,391,1930510,5604450
2,197,391,1930510,5604950
2,192,391,1930510,5605450
2,187,391,1930510,5605950
2,182,391,1930510,5606450
2,177,391,1930510,5606950
2,172,391,1930510,5607450
2,167,391,1930510,5607950
2,162,391,1930510,5608450
2,157,391,1930510,5608950
2,152,391,1930510,5609450
2,147,391,1930510,5609950
2,142,391,1930510,5610450
2,137,391,1930510,5610950
2,132,391,1930510,5611450
2,127,391,1930510,5611950
2,122,391,1930510,5612450
2,117,391,1930510,5612950
2,112,391,1930510,5613450
2,107,391,1930510,5613950
2,102,391,1930510,5614450
2,97,391,1930510,5614950
2,92,391,1930510,5615450
2,87,391,1930510,5615950
2,82,391,1930510,5616450
2,77,391,1930510,5616950
2,72,391,1930510,5617450
2,67,391,1930510,5617950
2,62,391,1930510,5618450
2,247,396,1931010,5599950
2,242,396,1931010,5600450
2,237,396,1931010,5600950
2,232,396,1931010,5601450
2,227,396,1931010,5601950
2,222,396,1931010,5602450
2,217,396,1931010,5602950
2,212,396,1931010,5603450
2,207,396,1931010,5603950
2,202,396,1931010,5604450
2,197,396,1931010,5604950
2,192,396,1931010,5605450
2,187,396,1931010,5605950
2,182,396,1931010,5606450
2,177,396,1931010,5606950
2,172,396,1931010,5607450
2,167,396,1931010,5607950
2,162,396,1931010,5608450
2,157,396,1931010,5608950
2,152,396,1931010,5609450
2,147,396,1931010,5609950
2,142,396,1931010,5610450
2,137,396,1931010,5610950
2,132,396,1931010,5611450
2,127,396,1931010,5611950
2,122,396,1931010,5612450
2,117,396,1931010,5612950
2,112,396,1931010,5613450
2,107,396,1931010,5613950
2,102,396,1931010,5614450
2,97,396,1931010,5614950
2,92,396,1931010,5615450
2,87,396,1931010,5615950
2,82,396,1931010,5616450
2,77,396,1931010,5616950
2,72,396,1931010,5617450
2,67,396,1931010,5617950
2,62,396,1931010,5618450
2,57,396,1931010,5618950
2,242,401,1931510,5600450
2,237,401,1931510,5600950
2,232,401,1931510,5601450
2,227,401,1931510,5601950
2,222,401,1931510,5602450
2,217,401,1931510,5602950
2,212,401,1931510,5603450
2,207,401,1931510,5603950
2,202,401,1931510,5604450
2,197,401,1931510,5604950
2,192,401,1931510,5605450
2,187,401,1931510,5605950
2,182,401,1931510,5606450
2,177,401,1931510,5606950
2,172,401,1931510,5607450
2,167,401,1931510,5607950
2,162,401,1931510,5608450
2,157,401,1931510,5608950
2,152,401,1931510,5609450
2,147,401,1931510,5609950
2,142,401,1931510,5610450
2,137,401,1931510,5610950
2,132,401,1931510,5611450
2,127,401,1931510,5611950
2,122,401,1931510,5612450
2,117,401,1931510,5612950
2,112,401,1931510,5613450
2,107,401,1931510,5613950
2,102,401,1931510,5614450
2,97,401,1931510,5614950
2,92,401,1931510,5615450
2,87,401,1931510,5615950
2,82,401,1931510,5616450
2,77,401,1931510,5616950
2,72,401,1931510,5617450
2,67,401,1931510,5617950
2,62,401,1931510,5618450
2,57,401,1931510,5618950
2,52,401,1931510,5619450
2,237,406,1932010,5600950
2,232,406,1932010,5601450
2,227,406,1932010,5601950
2,222,406,1932010,5602450
2,217,406,1932010,5602950
2,212,406,1932010,5603450
2,207,406,1932010,5603950
2,202,406,1932010,5604450
2,197,406,1932010,5604950
2,192,406,1932010,5605450
2,187,406,1932010,5605950
2,182,406,1932010,5606450
2,177,406,1932010,5606950
2,172,406,1932010,5607450
2,167,406,1932010,5607950
2,162,406,1932010,5608450
2,157,406,1932010,5608950
2,152,406,1932010,5609450
2,147,406,1932010,5609950
2,142,406,1932010,5610450
2,137,406,1932010,5610950
2,132,406,1932010,5611450
2,127,406,1932010,5611950
2,122,406,1932010,5612450
2,117,406,1932010,5612950
2,112,406,1932010,5613450
2,107,406,1932010,5613950
2,102,406,1932010,5614450
2,97,406,1932010,5614950
2,92,406,1932010,5615450
2,87,406,1932010,5615950
2,82,406,1932010,5616450
2,77,406,1932010,5616950
2,72,406,1932010,5617450
2,67,406,1932010,5617950
2,62,406,1932010,5618450
2,57,406,1932010,5618950
2,52,406,1932010,5619450
2,47,406,1932010,5619950
2,237,411,1932510,5600950
2,232,411,1932510,5601450
2,227,411,1932510,5601950
2,222,411,1932510,5602450
2,217,411,1932510,5602950
2,212,411,1932510,5603450
2,207,411,1932510,5603950
2,202,411,1932510,5604450
2,197,411,1932510,5604950
2,192,411,1932510,5605450
2,187,411,1932510,5605950
2,182,411,1932510,5606450
2,177,411,1932510,5606950
2,172,411,1932510,5607450
2,167,411,1932510,5607950
2,162,411,1932510,5608450
2,157,411,1932510,5608950
2,152,411,1932510,5609450
2,147,411,1932510,5609950
2,142,411,1932510,5610450
2,137,411,1932510,5610950
2,132,411,1932510,5611450
2,127,411,1932510,5611950
2,122,411,1932510,5612450
2,117,411,1932510,5612950
2,112,411,1932510,5613450
2,107,411,1932510,5613950
2,102,411,1932510,5614450
2,97,411,1932510,5614950
2,92,411,1932510,5615450
2,87,411,1932510,5615950
2,82,411,1932510,5616450
2,77,411,1932510,5616950
2,72,411,1932510,5617450
2,67,411,1932510,5617950
2,62,411,1932510,5618450
2,57,411,1932510,5618950
2,52,411,1932510,5619450
2,47,411,1932510,5619950
2,232,416,1933010,5601450
2,227,416,1933010,5601950
2,222,416,1933010,5602450
2,217,416,1933010,5602950
2,212,416,1933010,5603450
2,207,416,1933010,5603950
2,202,416,1933010,5604450
2,197,416,1933010,5604950
2,192,416,1933010,5605450
2,187,416,1933010,5605950
2,182,416,1933010,5606450
2,177,416,1933010,5606950
2,172,416,1933010,5607450
2,167,416,1933010,5607950
2,162,416,1933010,5608450
2,157,416,1933010,5608950
2,152,416,1933010,5609450
2,147,416,1933010,5609950
2,142,416,1933010,5610450
2,137,416,1933010,5610950
2,132,416,1933010,5611450
2,127,416,1933010,5611950
2,122,416,1933010,5612450
2,117,416,1933010,5612950
2,112,416,1933010,5613450
2,107,416,1933010,5613950
2,102,416,1933010,5614450
2,97,416,1933010,5614950
2,92,416,1933010,5615450
2,87,416,1933010,5615950
2,82,416,1933010,5616450
2,77,416,1933010,5616950
2,72,416,1933010,5617450
2,67,416,1933010,5617950
2,62,416,1933010,5618450
2,57,416,1933010,5618950
2,52,416,1933010,5619450
2,47,416,1933010,5619950
2,42,416,1933010,5620450
2,232,421,1933510,5601450
2,227,421,1933510,5601950
2,222,421,1933510,5602450
2,217,421,1933510,5602950
2,212,421,1933510,5603450
2,207,421,1933510,5603950
2,202,421,1933510,5604450
2,197,421,1933510,5604950
2,192,421,1933510,5605450
2,187,421,1933510,5605950
2,182,421,1933510,5606450
2,177,421,1933510,5606950
2,172,421,1933510,5607450
2,167,421,1933510,5607950
2,162,421,1933510,5608450
2,157,421,1933510,5608950
2,152,421,1933510,5609450
2,147,421,1933510,5609950
2,142,421,1933510,5610450
2,137,421,1933510,5610950
2,132,421,1933510,5611450
2,127,421,1933510,5611950
2,122,421,1933510,5612450
2,117,421,1933510,5612950
2,112,421,1933510,5613450
2,107,421,1933510,5613950
2,102,421,1933510,5614450
2,97,421,1933510,5614950
2,92,421,1933510,5615450
2,87,421,1933510,5615950
2,82,421,1933510,5616450
2,77,421,1933510,5616950
2,72,421,1933510,5617450
2,67,421,1933510,5617950
2,62,421,1933510,5618450
2,57,421,1933510,5618950
2,52,421,1933510,5619450
2,47,421,1933510,5619950
2,42,421,1933510,5620450
2,232,426,1934010,5601450
2,227,426,1934010,5601950
2,222,426,1934010,5602450
2,217,426,1934010,5602950
2,212,426,1934010,5603450
2,207,426,1934010,5603950
2,202,426,1934010,5604450
2,197,426,1934010,5604950
2,192,426,1934010,5605450
2,187,426,1934010,5605950
2,182,426,1934010,5606450
2,177,426,1934010,5606950
2,172,426,1934010,5607450
2,167,426,1934010,5607950
2,162,426,1934010,5608450
2,157,426,1934010,5608950
2,152,426,1934010,5609450
2,147,426,1934010,5609950
2,142,426,1934010,5610450
2,137,426,1934010,5610950
2,132,426,1934010,5611450
2,127,426,1934010,5611950
2,122,426,1934010,5612450
2,117,426,1934010,5612950
2,112,426,1934010,5613450
2,107,426,1934010,5613950
2,102,426,1934010,5614450
2,97,426,1934010,5614950
2,92,426,1934010,5615450
2,87,426,1934010,5615950
2,82,426,1934010,5616450
2,77,426,1934010,5616950
2,72,426,1934010,5617450
2,67,426,1934010,5617950
2,62,426,1934010,5618450
2,57,426,1934010,5618950
2,52,426,1934010,5619450
2,47,426,1934010,5619950
2,42,426,1934010,5620450
2,232,431,1934510,5601450
2,227,431,1934510,5601950
2,222,431,1934510,5602450
2,217,431,1934510,5602950
2,212,431,1934510,5603450
2,207,431,1934510,5603950
2,202,431,1934510,5604450
2,197,431,1934510,5604950
2,192,431,1934510,5605450
2,187,431,1934510,5605950
2,182,431,1934510,5606450
2,177,431,1934510,5606950
2,172,431,1934510,5607450
2,167,431,1934510,5607950
2,162,431,1934510,5608450
2,157,431,1934510,5608950
2,152,431,1934510,5609450
2,147,431,1934510,5609950
2,142,431,1934510,5610450
2,137,431,1934510,5610950
2,132,431,1934510,5611450
2,127,431,1934510,5611950
2,122,431,1934510,5612450
2,117,431,1934510,5612950
2,112,431,1934510,5613450
2,107,431,1934510,5613950
2,102,431,1934510,5614450
2,97,431,1934510,5614950
2,92,431,1934510,5615450
2,87,431,1934510,5615950
2,82,431,1934510,5616450
2,77,431,1934510,5616950
2,72,431,1934510,5617450
2,67,431,1934510,5617950
2,62,431,1934510,5618450
2,57,431,1934510,5618950
2,52,431,1934510,5619450
2,47,431,1934510,5619950
2,42,431,1934510,5620450
2,37,431,1934510,5620950
2,232,436,1935010,5601450
2,227,436,1935010,5601950
2,222,436,1935010,5602450
2,217,436,1935010,5602950
2,212,436,1935010,5603450
2,207,436,1935010,5603950
2,202,436,1935010,5604450
2,197,436,1935010,5604950
2,192,436,1935010,5605450
2,187,436,1935010,5605950
2,182,436,1935010,5606450
2,177,436,1935010,5606950
2,172,436,1935010,5607450
2,167,436,1935010,5607950
2,162,436,1935010,5608450
2,157,436,1935010,5608950
2,152,436,1935010,5609450
2,147,436,1935010,5609950
2,142,436,1935010,5610450
2,137,436,1935010,5610950
2,132,436,1935010,5611450
2,127,436,1935010,5611950
2,122,436,1935010,5612450
2,117,436,1935010,5612950
2,112,436,1935010,5613450
2,107,436,1935010,5613950
2,102,436,1935010,5614450
2,97,436,1935010,5614950
2,92,436,1935010,5615450
2,87,436,1935010,5615950
2,82,436,1935010,5616450
2,77,436,1935010,5616950
2,72,436,1935010,5617450
2,67,436,1935010,5617950
2,62,436,1935010,5618450
2,57,436,1935010,5618950
2,52,436,1935010,5619450
2,47,436,1935010,5619950
2,42,436,1935010,5620450
2,37,436,1935010,5620950
2,232,441,1935510,5601450
2,227,441,1935510,5601950
2,222,441,1935510,5602450
2,217,441,1935510,5602950
2,212,441,1935510,5603450
2,207,441,1935510,5603950
2,202,441,1935510,5604450
2,197,441,1935510,5604950
2,192,441,1935510,5605450
2,187,441,1935510,5605950
2,182,441,1935510,5606450
2,177,441,1935510,5606950
2,172,441,1935510,5607450
2,167,441,1935510,5607950
2,162,441,1935510,5608450
2,157,441,1935510,5608950
2,152,441,1935510,5609450
2,147,441,1935510,5609950
2,142,441,1935510,5610450
2,137,441,1935510,5610950
2,132,441,1935510,5611450
2,127,441,1935510,5611950
2,122,441,1935510,5612450
2,117,441,1935510,5612950
2,112,441,1935510,5613450
2,107,441,1935510,5613950
2,102,441,1935510,5614450
2,97,441,1935510,5614950
2,92,441,1935510,5615450
2,87,441,1935510,5615950
2,82,441,1935510,5616450
2,77,441,1935510,5616950
2,72,441,1935510,5617450
2,67,441,1935510,5617950
2,62,441,1935510,5618450
2,57,441,1935510,5618950
2,52,441,1935510,5619450
2,47,441,1935510,5619950
2,42,441,1935510,5620450
2,37,441,1935510,5620950
2,232,446,1936010,5601450
2,227,446,1936010,5601950
2,222,446,1936010,5602450
2,217,446,1936010,5602950
2,212,446,1936010,5603450
2,207,446,1936010,5603950
2,202,446,1936010,5604450
2,197,446,1936010,5604950
2,192,446,1936010,5605450
2,187,446,1936010,5605950
2,182,446,1936010,5606450
2,177,446,1936010,5606950
2,172,446,1936010,5607450
2,167,446,1936010,5607950
2,162,446,1936010,5608450
2,157,446,1936010,5608950
2,152,446,1936010,5609450
2,147,446,1936010,5609950
2,142,446,1936010,5610450
2,137,446,1936010,5610950
2,132,446,1936010,5611450
2,127,446,1936010,5611950
2,122,446,1936010,5612450
2,117,446,1936010,5612950
2,112,446,1936010,5613450
2,107,446,1936010,5613950
2,102,446,1936010,5614450
2,97,446,1936010,5614950
2,92,446,1936010,5615450
2,87,446,1936010,5615950
2,82,446,1936010,5616450
2,77,446,1936010,5616950
2,72,446,1936010,5617450
2,67,446,1936010,5617950
2,62,446,1936010,5618450
2,57,446,1936010,5618950
2,52,446,1936010,5619450
2,47,446,1936010,5619950
2,42,446,1936010,5620450
2,237,451,1936510,5600950
2,232,451,1936510,5601450
2,227,451,1936510,5601950
2,222,451,1936510,5602450
2,217,451,1936510,5602950
2,212,451,1936510,5603450
2,207,451,1936510,5603950
2,202,451,1936510,5604450
2,197,451,1936510,5604950
2,192,451,1936510,5605450
2,187,451,1936510,5605950
2,182,451,1936510,5606450
2,177,451,1936510,5606950
2,172,451,1936510,5607450
2,167,451,1936510,5607950
2,162,451,1936510,5608450
2,157,451,1936510,5608950
2,152,451,1936510,5609450
2,147,451,1936510,5609950
2,142,451,1936510,5610450
2,137,451,1936510,5610950
2,132,451,1936510,5611450
2,127,451,1936510,5611950
2,122,451,1936510,5612450
2,117,451,1936510,5612950
2,112,451,1936510,5613450
2,107,451,1936510,5613950
2,102,451,1936510,5614450
2,97,451,1936510,5614950
2,92,451,1936510,5615450
2,87,451,1936510,5615950
2,82,451,1936510,5616450
2,77,451,1936510,5616950
2,72,451,1936510,5617450
2,67,451,1936510,5617950
2,62,451,1936510,5618450
2,57,451,1936510,5618950
2,52,451,1936510,5619450
2,47,451,1936510,5619950
2,42,451,1936510,5620450
2,37,451,1936510,5620950
2,232,456,1937010,5601450
2,227,456,1937010,5601950
2,222,456,1937010,5602450
2,217,456,1937010,5602950
2,212,456,1937010,5603450
2,207,456,1937010,5603950
2,202,456,1937010,5604450
2,197,456,1937010,5604950
2,192,456,1937010,5605450
2,187,456,1937010,5605950
2,182,456,1937010,5606450
2,177,456,1937010,5606950
2,172,456,1937010,5607450
2,167,456,1937010,5607950
2,162,456,1937010,5608450
2,157,456,1937010,5608950
2,152,456,1937010,5609450
2,147,456,1937010,5609950
2,142,456,1937010,5610450
2,137,456,1937010,5610950
2,132,456,1937010,5611450
2,127,456,1937010,5611950
2,122,456,1937010,5612450
2,117,456,1937010,5612950
2,112,456,1937010,5613450
2,107,456,1937010,5613950
2,102,456,1937010,5614450
2,97,456,1937010,5614950
2,92,456,1937010,5615450
2,87,456,1937010,5615950
2,82,456,1937010,5616450
2,77,456,1937010,5616950
2,72,456,1937010,5617450
2,67,456,1937010,5617950
2,62,456,1937010,5618450
2,57,456,1937010,5618950
2,52,456,1937010,5619450
2,47,456,1937010,5619950
2,42,456,1937010,5620450
2,37,456,1937010,5620950
2,32,456,1937010,5621450
2,227,461,1937510,5601950
2,217,461,1937510,5602950
2,212,461,1937510,5603450
2,207,461,1937510,5603950
2,202,461,1937510,5604450
2,197,461,1937510,5604950
2,192,461,1937510,5605450
2,187,461,1937510,5605950
2,182,461,1937510,5606450
2,177,461,1937510,5606950
2,172,461,1937510,5607450
2,167,461,1937510,5607950
2,162,461,1937510,5608450
2,157,461,1937510,5608950
2,152,461,1937510,5609450
2,147,461,1937510,5609950
2,142,461,1937510,5610450
2,137,461,1937510,5610950
2,132,461,1937510,5611450
2,127,461,1937510,5611950
2,122,461,1937510,5612450
2,117,461,1937510,5612950
2,112,461,1937510,5613450
2,107,461,1937510,5613950
2,102,461,1937510,5614450
2,97,461,1937510,5614950
2,92,461,1937510,5615450
2,87,461,1937510,5615950
2,82,461,1937510,5616450
2,77,461,1937510,5616950
2,72,461,1937510,5617450
2,67,461,1937510,5617950
2,62,461,1937510,5618450
2,57,461,1937510,5618950
2,52,461,1937510,5619450
2,47,461,1937510,5619950
2,42,461,1937510,5620450
2,37,461,1937510,5620950
2,32,461,1937510,5621450
2,197,466,1938010,5604950
2,192,466,1938010,5605450
2,187,466,1938010,5605950
2,182,466,1938010,5606450
2,177,466,1938010,5606950
2,172,466,1938010,5607450
2,167,466,1938010,5607950
2,162,466,1938010,5608450
2,157,466,1938010,5608950
2,152,466,1938010,5609450
2,147,466,1938010,5609950
2,142,466,1938010,5610450
2,137,466,1938010,5610950
2,132,466,1938010,5611450
2,127,466,1938010,5611950
2,122,466,1938010,5612450
2,117,466,1938010,5612950
2,112,466,1938010,5613450
2,107,466,1938010,5613950
2,102,466,1938010,5614450
2,97,466,1938010,5614950
2,92,466,1938010,5615450
2,87,466,1938010,5615950
2,82,466,1938010,5616450
2,77,466,1938010,5616950
2,72,466,1938010,5617450
2,67,466,1938010,5617950
2,62,466,1938010,5618450
2,57,466,1938010,5618950
2,52,466,1938010,5619450
2,47,466,1938010,5619950
2,42,466,1938010,5620450
2,37,466,1938010,5620950
2,32,466,1938010,5621450
2,27,466,1938010,5621950
2,192,471,1938510,5605450
2,187,471,1938510,5605950
2,182,471,1938510,5606450
2,177,471,1938510,5606950
2,172,471,1938510,5607450
2,167,471,1938510,5607950
2,162,471,1938510,5608450
2,157,471,1938510,5608950
2,152,471,1938510,5609450
2,147,471,1938510,5609950
2,142,471,1938510,5610450
2,137,471,1938510,5610950
2,132,471,1938510,5611450
2,127,471,1938510,5611950
2,122,471,1938510,5612450
2,117,471,1938510,5612950
2,112,471,1938510,5613450
2,107,471,1938510,5613950
2,102,471,1938510,5614450
2,97,471,1938510,5614950
2,92,471,1938510,5615450
2,87,471,1938510,5615950
2,82,471,1938510,5616450
2,52,471,1938510,5619450
2,47,471,1938510,5619950
2,42,471,1938510,5620450
2,37,471,1938510,5620950
2,32,471,1938510,5621450
2,192,476,1939010,5605450
2,187,476,1939010,5605950
2,182,476,1939010,5606450
2,177,476,1939010,5606950
2,172,476,1939010,5607450
2,167,476,1939010,5607950
2,162,476,1939010,5608450
2,157,476,1939010,5608950
2,152,476,1939010,5609450
2,147,476,1939010,5609950
2,142,476,1939010,5610450
2,137,476,1939010,5610950
2,132,476,1939010,5611450
2,127,476,1939010,5611950
2,122,476,1939010,5612450
2,117,476,1939010,5612950
2,112,476,1939010,5613450
2,187,481,1939510,5605950
2,182,481,1939510,5606450
2,177,481,1939510,5606950
2,172,481,1939510,5607450
2,167,481,1939510,5607950
2,162,481,1939510,5608450
2,157,481,1939510,5608950
2,152,481,1939510,5609450
2,147,481,1939510,5609950
2,142,481,1939510,5610450
2,137,481,1939510,5610950
2,132,481,1939510,5611450
2,127,481,1939510,5611950
2,182,486,1940010,5606450
2,177,486,1940010,5606950
2,172,486,1940010,5607450
2,167,486,1940010,5607950
2,162,486,1940010,5608450
2,157,486,1940010,5608950
2,152,486,1940010,5609450
2,147,486,1940010,5609950
2,142,486,1940010,5610450
2,177,491,1940510,5606950
2,172,491,1940510,5607450
2,167,491,1940510,5607950
2,162,491,1940510,5608450
2,157,491,1940510,5608950
2,152,491,1940510,5609450
2,172,496,1941010,5607450
2,167,496,1941010,5607950
2,162,496,1941010,5608450
2,167,501,1941510,5607950
